bos_Operation_Althea = {
	bos_draft_EUFOR = {
		icon = GFX_decision_eng_trade_unions_support
		allowed = {
			original_tag = BOS
		}
		cost = 50
		visible = {
		}
		available = {
		}
		complete_effect = {
			add_ideas = BOS_EUFOR
		}
		ai_will_do = {
			factor = 1
		}
	}
}

	bos_SFOR_title = {
	bos_more_sfor = {
		icon = GFX_decision_generic_nationalism
		allowed = {
			original_tag = BOS
		}
		cost = 25
		visible = {
		}
		available = {
		}
		days_remove = 50
		complete_effect = {
			modify_timed_idea = {
				idea = BOS_SFOR
				days = 150
			}
		}
	}
	bos_lower_sfor = {
		icon = GFX_decision_eng_trade_unions_demand
		allowed = {
			original_tag = BOS
		}
		cost = 50
		visible = {
		}
		available = {
		}
		complete_effect = {
			modify_timed_idea = {
				idea = BOS_SFOR
				days = -150
			}
		}
	}
}

bos_Return_of_entitled_lands = {
	bos_core_states_2 = {
		icon = GFX_decision_bos_new_nation_button
		allowed = {
		}
		days_remove = 230
		fire_only_once = yes
		available = {
			has_political_power > 150
		}
		visible = {
		}
		custom_cost_trigger = {
			num_of_civilian_factories_available_for_projects > 0
		}
		custom_cost_text = decision_cost_civ_factory_1
		state_target = yes
		fixed_random_seed = no
		modifier = {
			civilian_factory_use = 1
		}
		highlight_states = {
			highlight_state_targets = {
				state = 126
			}
		}
		target_trigger = {
			FROM = {
				NOT = {
					is_core_of = ROOT
				}
				any_neighbor_state = {
					is_core_of = ROOT
				}
				compliance > 40
				resistance < 10
			}
		}
		complete_effect = {
			BOS = { add_political_power = -150 }
		}
		remove_effect = {
			add_stability = -0.05
			FROM = {
				add_core_of = ROOT
			}
			transfer_state = FROM
		}
	}
}
bos_Islamic_uprising = {
	bos_expell_democratic_supports = {
		icon = GFX_decision_generic_prepare_civil_war
		allowed = {
			original_tag = BOS
		}
		visible = { always = no }
		fire_only_once = yes
		available = {
		}
		complete_effect = {
			add_days_mission_timeout = {
				mission = bos_declare_a_islamic_take_over
				days = 30
			}
		}
	}
	bos_expand_islamic_unity = {
		icon = GFX_decision_generic_prepare_civil_war
		allowed = {
			original_tag = BOS
		}
		fire_only_once = yes
		visible = { always = no }
		available = {
		}
		complete_effect = {
			add_days_mission_timeout = {
				mission = bos_declare_a_islamic_take_over
				days = 30
			}
		}
	}
	bos_commence_centralization = {
		icon = GFX_decision_generic_prepare_civil_war
		allowed = {
			original_tag = BOS
		}
		fire_only_once = yes
		visible = { always = no }
		available = {
		}
		complete_effect = {
			add_days_mission_timeout = {
				mission = bos_declare_a_islamic_take_over
				days = 30
			}
		}
	}
	bos_declare_a_islamic_take_over = {
		icon = GFX_decision_revolt
		allowed = { always = yes }
		available = {
			OR = {
			NOT = { has_completed_focus = BOS_National_awakening }
			is_subject = yes }
		}
		activation = {
			has_completed_focus = BOS_National_awakening
			has_war_with = RSK
		}
		days_mission_timeout = 25
		#days_remove = 1
		is_good = no
		fire_only_once = yes #cycled
		timeout_effect = {
			every_country = {
				news_event = news.84
			}
		hidden_effect = {
			HZG = {
				add_state_core = 1054
				add_state_core = 1053
				add_state_core = 129
				add_state_core = 1051
			}
		release = HZG
		add_ideas = BOS_agressive_nation
		HZG = {
		add_state_core = 1051
		set_cosmetic_tag = bosnia_gov_old_name
		declare_war_on = {
		target = BOS
		type = civil_war
		}
		declare_war_on = {
		target = RSK
		type = civil_war
		}
		add_state_core = 1054
		add_state_core = 1053
		add_state_core = 129
		add_state_core = 128
		add_state_core = 1051
		hidden_effect = {
			clear_array = ruling_party
			clear_array = gov_coalition_array
			add_to_array = { ruling_party = 0 }
			update_government_coalition_strength = yes
			#update_party_name = yes
			set_coalition_drift = yes
			set_ruling_leader = yes
			set_leader = yes
		}
		set_politics = {
			ruling_party = democratic
			elections_allowed = yes
		}
		set_temp_variable = { party_index = 0 }
		set_temp_variable = { party_popularity_increase = 0.6 }
		set_temp_variable = { temp_outlook_increase = 0.87 }
		add_relative_party_popularity = yes
		}
		transfer_units_fraction = {
			target = HZG
			size = 0.3
			stockpile_ratio = 0.3
			army_ratio = 0.9
			navy_ratio = 0.0
			air_ratio = 0.0
			keep_unit_leaders_trigger = {
			#
			}
			}
			set_cosmetic_tag = bosnia_islamic_revolt
			hidden_effect = {
				clear_array = ruling_party
				clear_array = gov_coalition_array
				add_to_array = { ruling_party = 11 }
				update_government_coalition_strength = yes
				#update_party_name = yes
				set_coalition_drift = yes
				set_ruling_leader = yes
				set_leader = yes
			}
			set_politics = {
				ruling_party = fascism
				elections_allowed = yes
			}
			set_temp_variable = { party_index = 11 }
			set_temp_variable = { party_popularity_increase = 0.6 }
			set_temp_variable = { temp_outlook_increase = 0.87 }
			add_relative_party_popularity = yes
			declare_war_on = {
				target = RSK
				type = annex_everything
			}
			add_state_core = 1054
			add_state_core = 1053
			add_state_core = 129
			add_state_core = 128
			add_state_core = 1051
			add_state_core = 1052
			128 = {
			create_unit = {
				division = "name = \"1. El Mudžahid Forces\" division_template = \"Pješadijska Divizija\" start_experience_factor = 5"
				owner = BOS
			}
			create_unit = {
				division = "name = \"2. El Mudžahid Forces\" division_template = \"Pješadijska Divizija\" start_experience_factor = 5"
				owner = BOS
			}
			create_unit = {
				division = "name = \"3. El Mudžahid Forces\" division_template = \"Gardijska\" start_experience_factor = 5"
				owner = BOS
			}
			create_unit = {
				division = "name = \"4. El Mudžahid Forces\" division_template = \"Gardijska\" start_experience_factor = 5"
				owner = BOS
			}
			create_unit = {
				division = "name = \"5. El Mudžahid Forces\" division_template = \"Gardijska\" start_experience_factor = 5"
				owner = BOS
			}
			create_unit = {
				division = "name = \"6. El Mudžahid Forces\" division_template = \"Gardijska\" start_experience_factor = 5"
				owner = BOS
			}
			create_unit = {
				division = "name = \"7. El Mudžahid Forces\" division_template = \"Gardijska\" start_experience_factor = 5"
				owner = BOS
			}
			}
		if = {
			limit = {
			any_country = {
					OR = {
						neutrality_neutral_conservatism_are_in_power = yes
						neutrality_neutral_oligarch_are_in_power = yes
						neutrality_neutral_libertarians_are_in_power = yes
						neutrality_neutral_green_are_in_power = yes
						neutrality_neutral_social_are_in_power = yes
						nationalist_right_wing_populists_are_in_power = yes
						nationalist_fascist_are_in_power = yes
						nationalist_monarchists_are_in_power = yes
						nationalist_military_junta_are_in_power = yes
						emerging_reactionaries_are_in_power = yes
						has_government = democratic
					}
				}
			}
			add_opinion_modifier = { target = ROOT modifier = AlQaida_Are_Terrorists_Trade }
			add_opinion_modifier = { target = ROOT modifier = AlQaida_Are_Terrorists }
		}
		}
	}
}
}
Bosnian_prep_for_civil_war = {
	Bos_raid_weapon_stock_piles = {
		icon = GFX_decision_generic_prepare_civil_war
		allowed = {
			original_tag = BOS
		}
		visible = {
		}
		available = {
		}
		highlight_states = {
			highlight_state_targets = {
				state = 1054
			}
			highlight_color_while_active = 3
			highlight_color_before_active = 2
		}
		fire_only_once = yes
		complete_effect = {
			set_country_flag = Bos_raid_weapon_stock_piles
		}
	}
	Bos_sway_local_police_units = {
		icon = GFX_decision_generic_police_action
		allowed = {
			original_tag = BOS
		}
		visible = {
		}
		available = {
		}
		highlight_states = {
			highlight_state_targets = {
				state = 128
			}
			highlight_color_while_active = 3
			highlight_color_before_active = 2
		}
		fire_only_once = yes
		complete_effect = {
			set_country_flag = Bos_sway_local_police_units
		}
	}
	bos_rally_support_Out_of_unsko_sanski = {
		icon = GFX_decision_generic_nationalism
		allowed = {
			original_tag = BOS
		}
		visible = {
		}
		available = {
		}
		highlight_states = {
			highlight_state_targets = {
				state = 1051
			}
			highlight_color_while_active = 3
			highlight_color_before_active = 2
		}
		fire_only_once = yes
		complete_effect = {
			set_country_flag = bos_rally_support_Out_of_unsko_sanski
		}
	}
	Bos_call_upon_internal_orgs = {
		icon = GFX_decision_generic_political_discourse
		allowed = {
			original_tag = BOS
		}
		visible = {
		}
		available = {
		}
		highlight_states = {
			highlight_state_targets = {
				state = 128
			}
			highlight_color_while_active = 3
			highlight_color_before_active = 2
		}
		fire_only_once = yes
		complete_effect = {
			set_country_flag = Bos_call_upon_internal_orgs
		}
	}
	bos_civil_war = {
		icon = GFX_decision_revolt
		allowed = { always = yes }
		available = {
				has_country_flag = defeat_all_serbs
				NOT = { has_completed_focus = BOS_National_awakening }
		}
		activation = {
			has_completed_focus = BOS_National_awakening
		}
		days_mission_timeout = 14
		#days_remove = 1
		is_good = no
		fire_only_once = yes #cycled
		timeout_effect = {
			set_rule = {
				can_not_declare_war = no
			}
			hidden_effect = {
				set_country_flag = Bosnia_PDP
				129 = { set_demilitarized_zone = no }
				1053 = { set_demilitarized_zone = no }
				1054 = { set_demilitarized_zone = no }
				release = RSK
					SER = {
						add_ideas = bos_SER_vol_troops
					}
				RSK = {
					1053 = {
						create_unit = {
							division = "name = \"2.Južna milicija farmera\" division_template = \"Milicija Divizija\" start_experience_factor = 3"
							owner = RSK
						}
					}
					129 = {
						create_unit = {
							division = "name = \"2.Južna milicija farmera\" division_template = \"Milicija Divizija\" start_experience_factor = 3"
							owner = RSK
						}
						create_unit = {
							division = "name = \"2.Rudarska milicija\" division_template = \"Milicija Divizija\" start_experience_factor = 3"
							owner = RSK
						}
						create_unit = {
							division = "name = \"2.Narodna milicija\" division_template = \"Milicija Divizija\" start_experience_factor = 3"
							owner = RSK
						}
					}
					1054 = {
						create_unit = {
							division = "name = \"2.Komunistička milicija\" division_template = \"Milicija Divizija\" start_experience_factor = 0"
							owner = RSK
						}
						create_unit = {
							division = "name = \"2.Milicija narodnog fronta Hrvata\" division_template = \"Milicija Divizija\" start_experience_factor = 0"
							owner = RSK
						}
					}
			 }
			BOS = { country_event = { id = Bosnia.1  days = 0 } }
			add_ideas = BOS_bosniak_balkan_aspiration2
			RSK = {
				129 = {
						create_unit = {
						division = "name = \"Južna milicija farmera\" division_template = \"Milicija Divizija\" start_experience_factor = 1"
						owner = RSK
						}
						create_unit = {
						division = "name = \"Rudarska milicija\" division_template = \"Milicija Divizija\" start_experience_factor = 0"
						owner = RSK
						}
						create_unit = {
						division = "name = \"Narodna milicija\" division_template = \"Milicija Divizija\" start_experience_factor = 1"
						owner = RSK
						}
						}
						1054 = {
						create_unit = {
						division = "name = \"Komunistička milicija\" division_template = \"Milicija Divizija\" start_experience_factor = 0"
						owner = RSK
						}
						create_unit = {
						division = "name = \"Milicija narodnog fronta Hrvata\" division_template = \"Milicija Divizija\" start_experience_factor = 0"
						owner = RSK
						}
				}
			}
		}
	}
}
}
faction__bos_yugo_nost = {
	Boost_yugo_nost_serbia = {
		icon = GFX_decision_eng_propaganda_campaigns
		allowed = {
			original_tag = BOS
		}
		targets = { SER }
		available = {
			NOT = { has_idea = bos_formed_yugo }
			NOT = { has_completed_focus = BOS_Bosnian_revanchism }
			has_completed_focus = BOS_Balkan_backyard
			OR = {
			NOT = { country_exists = SER }
			SER = {
				influence_higher_15 = yes
			}
			}
			OR = {
				NOT = { country_exists = MNT }
				MNT = {
					influence_higher_15 = yes
				}
			}
			OR = {
				NOT = { country_exists = KOS }
				KOS = {
					influence_higher_15 = yes
				}
			}
		}
		days_remove = 5
		cost = 10
		fire_only_once = no
		ai_will_do = {
			factor = 0
			modifier = {
				factor = 0
				is_historical_focus_on = yes
			}
		}
		visible = {
			OR = {
				country_exists = SER
				country_exists = MNT
				country_exists = KOS
			}
			has_completed_focus = BOS_Balkan_backyard
		}
		complete_effect = {
		}
		remove_effect = {
			add_to_variable = {
				var = Boost_yugo_nost_serbia
				value = 4
			}
			add_to_variable = {
				var = Boost_yugo_nost_kosovo
				value = 4
			}
			add_to_variable = {
				var = Boost_yugo_nost_monterngro
				value = 4
			}
			custom_effect_tooltip = plus_four_yugo_nost_serbia
		}
	}
	Boost_yugo_nost_Bosnia = {
		icon = GFX_decision_eng_propaganda_campaigns
		allowed = {
			original_tag = SER
		}
		targets = { BOS }
		available = {
			#has_completed_focus = BOS_Balkan_backyard
			BOS = {
				influence_higher_15 = yes
			}
		}
		days_remove = 5
		cost = 10
		fire_only_once = no
		ai_will_do = {
			factor = 0
			modifier = {
				factor = 0
				is_historical_focus_on = yes
			}
		}
		visible = {
			country_exists = BOS
			#has_completed_focus = BOS_Balkan_backyard
		}
		complete_effect = {
		}
		remove_effect = {
			add_to_variable = {
				var = Boost_yugo_nost_bosnia
				value = 4
			}
			custom_effect_tooltip = plus_four_yugo_nost_bosnia

		}
	}
	Boost_yugo_nost_croatia = {
		icon = GFX_decision_eng_propaganda_campaigns
		allowed = {
			OR = {
				original_tag = SER
				original_tag = BOS
			}
		}
		targets = { CRO }
		available = {
			NOT = { has_idea = bos_formed_yugo }
			NOT = { has_completed_focus = BOS_Bosnian_revanchism }
			has_completed_focus = BOS_Balkan_backyard
			CRO = {
				influence_higher_15 = yes
			}
		}
		days_remove = 5
		cost = 10
		fire_only_once = no
		ai_will_do = {
			factor = 0
			modifier = {
				factor = 0
				is_historical_focus_on = yes
			}
		}
		visible = {
			country_exists = CRO
			has_completed_focus = BOS_Balkan_backyard
		}
		complete_effect = {
		}
		remove_effect = {
			add_to_variable = {
				var = Boost_yugo_nost_croatia
				value = 4
			}
			custom_effect_tooltip = plus_four_yugo_nost_croatia

		}
	}
	Boost_yugo_nost_slovinia = {
		icon = GFX_decision_eng_propaganda_campaigns
		allowed = {
			OR = {
				original_tag = SER
				original_tag = BOS
			}
		}
		available = {
			NOT = { has_idea = bos_formed_yugo }
			NOT = { has_completed_focus = BOS_Bosnian_revanchism }
			has_completed_focus = BOS_Balkan_backyard
			SLV = {
				influence_higher_15 = yes
			}
		}
		targets = { SLV }
		days_remove = 5
		cost = 10
		fire_only_once = no
		ai_will_do = {
			factor = 0
			modifier = {
				factor = 0
				is_historical_focus_on = yes
			}
		}
		visible = {
			country_exists = SLV
			has_completed_focus = BOS_Balkan_backyard
		}
		complete_effect = { }
		remove_effect = {
			add_to_variable = {
				var = Boost_yugo_nost_slovinia
				value = 4
			}
			custom_effect_tooltip = plus_four_yugo_nost_slovinia
		}
	}
	Boost_yugo_nost_macedonia = {
		icon = GFX_decision_eng_propaganda_campaigns
		allowed = {
			OR = {
				original_tag = SER
				original_tag = BOS
			}
		}
		targets = { FYR }
		available = {
			NOT = { has_idea = bos_formed_yugo }
			NOT = { has_completed_focus = BOS_Bosnian_revanchism }
			has_completed_focus = BOS_Balkan_backyard
			FYR = {
				influence_higher_15 = yes
			}
		}
		days_remove = 5
		cost = 10
		fire_only_once = no
		ai_will_do = {
			factor = 0
			modifier = {
				factor = 0
				is_historical_focus_on = yes
			}
		}
		visible = {
			country_exists = FYR
			has_completed_focus = BOS_Balkan_backyard
		}
		complete_effect = {
		}
		remove_effect = {
			add_to_variable = {
				var = Boost_yugo_nost_macedonia
				value = 4
			}
			custom_effect_tooltip = plus_four_yugo_nost_macedonia

		}
	}
	bos_unite_yugoslavia = {
		icon = GFX_decision_generic_form_nation
		allowed = {
			original_tag = BOS
		}
		available = {
		#has_completed_focus = BOS_Balkan_backyard
		has_idea = bos_rotating_presidency3
		OR = {
			NOT = { country_exists = SER }
			custom_trigger_tooltip = {
			tooltip = SER_Yugonost_more_than_75
			check_variable = { from.Boost_yugo_nost_serbia > 74 }
		} }
		OR = {
			NOT = { country_exists = CRO }
			custom_trigger_tooltip = {
			tooltip = CRO_Yugonost_more_than_75
			check_variable = { from.Boost_yugo_nost_croatia > 74 }
		} }
		OR = {
			NOT = { country_exists = BOS }
			custom_trigger_tooltip = {
			tooltip = BOS_Yugonost_more_than_75
			check_variable = { from.Boost_yugo_nost_bosnia > 74 }
		} }
		OR = {
			NOT = { country_exists = SLV }
			custom_trigger_tooltip = {
			tooltip = SLV_Yugonost_more_than_75
			check_variable = { from.Boost_yugo_nost_slovinia > 74 }
		} }
		OR = {
			NOT = { country_exists = FYR }
			custom_trigger_tooltip = {
			tooltip = FYR_Yugonost_more_than_75
			check_variable = { from.Boost_yugo_nost_macedonia > 74 }
		} }
		OR = {
			NOT = { country_exists = MNT }
			custom_trigger_tooltip = {
			tooltip = MNT_Yugonost_more_than_75
			check_variable = { from.Boost_yugo_nost_monterngro > 74 }
		} }
		OR = {
			NOT = { country_exists = KOS }
			custom_trigger_tooltip = {
			tooltip = KOS_Yugonost_more_than_75
			check_variable = { from.Boost_yugo_nost_kosovo > 74 }
		}
		}
		NOT = {
				has_completed_focus = BOS_Bosnian_revanchism
				has_idea = bos_formed_yugo
			}
		}
		cost = 110
		fire_only_once = no
		ai_will_do = {
			factor = 0
			modifier = {
				factor = 0
				is_historical_focus_on = yes
			}
		}
		visible = {
		}
		complete_effect = {
			custom_effect_tooltip = BOS_sends_invites_to_yugo
			hidden_effect = {
				news_event = news.85
			SLV = { country_event =	bosnia_political.23 }
			CRO = {	country_event =	bosnia_political.23 }
			SER = {	country_event =	bosnia_political.23 }
			KOS = { country_event =	bosnia_political.23 }
			FYR = { country_event =	bosnia_political.23 }
			MNT = { country_event =	bosnia_political.23 }
			add_state_core = 124
			add_state_core = 125
			add_state_core = 127
			add_state_core = 126
			add_state_core = 130
			add_state_core = 998
			add_state_core = 131
			add_state_core = 134
			add_state_core = 132
			add_state_core = 133
			add_state_core = 135
			add_state_core = 136
			add_named_threat = {
				threat = 1.4
				name = bos_formed_yugo
			}
			add_ideas = bos_formed_yugo
			remove_ideas = bos_rotating_presidency3
			set_cosmetic_tag = bos_yugo
			set_country_flag = BOS_yugo_nost_completed
			hidden_effect = { #collapse focus tree
			}
			set_capital = {
				state = 131
				remember_old_capital = no
			}
			133 = { set_demilitarized_zone = no }

		}
	}
		remove_effect = { }
	}
	# bos_unite_yugoslavia_Serbia = {
	# 	icon = GFX_decision_generic_form_nation
	# 	allowed = {
	# 		original_tag = SER
	# 	}
	# 	available = {
	# 	#has_completed_focus = BOS_Balkan_backyard
	# 	has_idea = bos_rotating_presidency3
	# 	OR = {
	# 		NOT = { country_exists = SER }
	# 		custom_trigger_tooltip = {
	# 		tooltip = SER_Yugonost_more_than_75
	# 		check_variable = { from.Boost_yugo_nost_serbia > 74 }
	# 	} }
	# 	OR = {
	# 		NOT = { country_exists = CRO }
	# 		custom_trigger_tooltip = {
	# 		tooltip = CRO_Yugonost_more_than_75
	# 		check_variable = { from.Boost_yugo_nost_croatia > 74 }
	# 	} }
	# 	OR = {
	# 		NOT = { country_exists = BOS }
	# 		custom_trigger_tooltip = {
	# 		tooltip = BOS_Yugonost_more_than_75
	# 		check_variable = { from.Boost_yugo_nost_bosnia > 74 }
	# 	} }
	# 	OR = {
	# 		NOT = { country_exists = SLV }
	# 		custom_trigger_tooltip = {
	# 		tooltip = SLV_Yugonost_more_than_75
	# 		check_variable = { from.Boost_yugo_nost_slovinia > 74 }
	# 	} }
	# 	OR = {
	# 		NOT = { country_exists = FYR }
	# 		custom_trigger_tooltip = {
	# 		tooltip = FYR_Yugonost_more_than_75
	# 		check_variable = { from.Boost_yugo_nost_macedonia > 74 }
	# 	} }
	# 	OR = {
	# 		NOT = { country_exists = MNT }
	# 		custom_trigger_tooltip = {
	# 		tooltip = MNT_Yugonost_more_than_75
	# 		check_variable = { from.Boost_yugo_nost_monterngro > 74 }
	# 	} }
	# 	OR = {
	# 		NOT = { country_exists = KOS }
	# 		custom_trigger_tooltip = {
	# 		tooltip = KOS_Yugonost_more_than_75
	# 		check_variable = { from.Boost_yugo_nost_kosovo > 74 }
	# 	}
	# 	}
	# 	NOT = {has_idea = bos_formed_yugo}
	# 	}
	# 	cost = 110
	# 	fire_only_once = no
	# 	ai_will_do = {
	# 		factor = 0
	# 		modifier = {
	# 			factor = 0
	# 			is_historical_focus_on = yes
	# 		}
	# 	}
	# 	visible = {
	# 	}
	# 	complete_effect = {
	# 		custom_effect_tooltip = BOS_sends_invites_to_yugo
	# 		#hidden_effect = {
	# 		news_event = news.85
	# 		SLV = { country_event =	TEMP.23 }
	# 		CRO = {	country_event =	TEMP.23 }
	# 		BOS = {	country_event =	TEMP.23 }
	# 		KOS = { country_event =	TEMP.23 }
	# 		FYR = { country_event =	TEMP.23 }
	# 		MNT = { country_event =	TEMP.23 }
	# 		add_state_core = 124
	# 		add_state_core = 125
	# 		add_state_core = 127
	# 		add_state_core = 126
	# 		add_state_core = 130
	# 		add_state_core = 998
	# 		add_state_core = 131
	# 		add_state_core = 134
	# 		add_state_core = 132
	# 		add_state_core = 133
	# 		add_state_core = 135
	# 		add_state_core = 136
	# 		add_state_core = 1053
	# 		add_state_core = 129
	# 		add_state_core = 128
	# 		add_state_core = 1052
	# 		add_state_core = 1051
	# 		add_named_threat = {
	# 			threat = 1.4
	# 			name = bos_formed_yugo
	# 		}
	# 		add_ideas = bos_formed_yugo
	# 		#remove_ideas = bos_rotating_presidency3
	# 		set_cosmetic_tag = bos_yugo
	# 		set_country_flag = BOS_yugo_nost_completed
	# 		hidden_effect = { #collapse focus tree
	# 		}
	# 		set_capital = {
	# 			state = 131
	# 			remember_old_capital = no
	# 		}
	# 		133 = { set_demilitarized_zone = no }

	# 	#}
	# }
	# 	remove_effect = { }
	# }
}
faction_map_bos = {
	BOS_Quell_serbians = {
		icon = GFX_decision_generic_police_action
		allowed = {
			original_tag = BOS
		}
		available = {
			custom_trigger_tooltip = {
				tooltip = bos_serbian_attitude_Hostile_tt
				check_variable = { from.srpska_attitude < 2 }
			}
		}
		days_remove = 60
		cost = 15
		fire_only_once = no
		ai_will_do = {
			factor = 0
			modifier = {
				factor = 0
				is_historical_focus_on = yes
			}
		}
		visible = {
			has_stability < 0.8
			has_war_support < 0.8
			custom_trigger_tooltip = {
				tooltip = bos_serbian_attitude_Hostile_tt
				check_variable = { from.srpska_attitude < 2 }
			}
		}
		complete_effect = { }
		remove_effect = {
			custom_effect_tooltip = bos_srpska_attitude_towards_us_will_lower_tt
			add_to_variable = {
				var = srpska_attitude
				value = -1
			}
			custom_effect_tooltip = bos_srpska_stability_will_lower_tt
			add_to_variable = {
				var = srpska_stability
				value = -1
			}
			clamp_variable = { var = croat_attitude min = 1 max = 4 }
			clamp_variable = { var = srpska_attitude min = 1 max = 4 }
			clamp_variable = { var = bosniak_attitude min = 1 max = 4 }
			clamp_variable = { var = croat_stability min = 1 max = 4 }
			clamp_variable = { var = srpska_stability min = 1 max = 4 }
			clamp_variable = { var = bosniak_stability min = 1 max = 4 }
		set_temp_variable = { party_index = 1 }
		set_temp_variable = { party_popularity_increase = 0.07 }
		set_temp_variable = { temp_outlook_increase = 0.05 }
		add_relative_party_popularity = yes
		set_temp_variable = { party_index = 3 }
		set_temp_variable = { party_popularity_increase = 0.14 }
		set_temp_variable = { temp_outlook_increase = 0.05 }
		add_relative_party_popularity = yes
		set_temp_variable = { party_index = 14 }
		set_temp_variable = { party_popularity_increase = -0.08 }
		set_temp_variable = { temp_outlook_increase = -0.05 }
		add_relative_party_popularity = yes
		set_temp_variable = { party_index = 18 }
		set_temp_variable = { party_popularity_increase = -0.05 }
		set_temp_variable = { temp_outlook_increase = -0.05 }
		add_relative_party_popularity = yes
		set_temp_variable = { party_index = 16 }
		set_temp_variable = { party_popularity_increase = 0.04 }
		set_temp_variable = { temp_outlook_increase = 0.05 }
		add_relative_party_popularity = yes
		clamp_variable = { var = croat_attitude min = 1 max = 4 }
		clamp_variable = { var = srpska_attitude min = 1 max = 4 }
		clamp_variable = { var = bosniak_attitude min = 1 max = 4 }
		clamp_variable = { var = croat_stability min = 1 max = 4 }
		clamp_variable = { var = srpska_stability min = 1 max = 4 }
		clamp_variable = { var = bosniak_stability min = 1 max = 4 }
		}
	}
	BOS_gain_Serbian_popular_support = {
		icon = GFX_decision_eng_propaganda_campaigns
		allowed = { original_tag = BOS }
		available = {
		has_stability < 0.8
		has_war_support < 0.8
		OR = {
			custom_trigger_tooltip = {
			tooltip = bos_serbian_attitude_Hostile_tt
			check_variable = { from.srpska_attitude < 2 }
			}
			custom_trigger_tooltip = {
			tooltip = bos_serbian_attitude_Inconsequential_tt
			check_variable = { from.srpska_attitude < 3 }
			}
		}
		}
		days_remove = 60
		cost = 15
		fire_only_once = no
		ai_will_do = {
			factor = 0
			modifier = {
				factor = 0
				is_historical_focus_on = yes
			}
		}
		visible = {
			OR = {
			custom_trigger_tooltip = {
				tooltip = bos_serbian_attitude_Hostile_tt
				check_variable = { from.srpska_attitude < 2 }
			}
			custom_trigger_tooltip = {
				tooltip = bos_serbian_attitude_Inconsequential_tt
				check_variable = { from.srpska_attitude < 3 }
			}
			}
		}
		complete_effect = { }
		remove_effect = {
			custom_effect_tooltip = bos_srpska_attitude_towards_us_will_rise_tt
			add_to_variable = {
				var = srpska_attitude
				value = 1
			}
			custom_effect_tooltip = bos_srpska_stability_will_rise_tt
			add_to_variable = {
				var = srpska_stability
				value = 1
			}
			clamp_variable = { var = croat_attitude min = 1 max = 4 }
			clamp_variable = { var = srpska_attitude min = 1 max = 4 }
			clamp_variable = { var = bosniak_attitude min = 1 max = 4 }
			clamp_variable = { var = croat_stability min = 1 max = 4 }
			clamp_variable = { var = srpska_stability min = 1 max = 4 }
			clamp_variable = { var = bosniak_stability min = 1 max = 4 }
		}
		ai_will_do = {
			factor = 1
		}
	}
	BOS_colabration_with_serbians = {
		icon = GFX_decision_generic_political_discourse
		allowed = {
			original_tag = BOS
		}
		available = {

		custom_trigger_tooltip = {
			tooltip = bos_serbian_attitude_friendly_tt
			check_variable = { from.srpska_attitude > 2 }
			check_variable = { from.srpska_attitude < 4 }
		}
		}
		days_remove = 60
		cost = 15
		fire_only_once = no
		ai_will_do = {
			factor = 0
			modifier = {
				factor = 0
				is_historical_focus_on = yes
			}
		}
		visible = {
			NOT = { check_variable = { from.srpska_attitude > 3 } }
			custom_trigger_tooltip = {
				tooltip = bos_serbian_attitude_friendly_tt
				check_variable = { from.srpska_attitude > 2 }
				check_variable = { from.srpska_attitude < 4 }
			}
		}
		remove_effect = {
			custom_effect_tooltip = bos_srpska_attitude_towards_us_will_rise_tt
			add_to_variable = {
				var = srpska_attitude
				value = 1
			}
			custom_effect_tooltip = bos_srpska_stability_will_rise_tt
			add_to_variable = {
				var = srpska_stability
				value = 1
			}
			clamp_variable = { var = croat_attitude min = 1 max = 4 }
			clamp_variable = { var = srpska_attitude min = 1 max = 4 }
			clamp_variable = { var = bosniak_attitude min = 1 max = 4 }
			clamp_variable = { var = croat_stability min = 1 max = 4 }
			clamp_variable = { var = srpska_stability min = 1 max = 4 }
			clamp_variable = { var = bosniak_stability min = 1 max = 4 }
		}
		ai_will_do = {
			factor = 1
		}
	}
	BOS_Quell_Bosniaks = {
		icon = GFX_decision_generic_police_action
		allowed = { original_tag = BOS }
		available = {
			has_stability < 0.8
			has_war_support < 0.8
			custom_trigger_tooltip = {
				tooltip = bos_Bosniak_attitude_Hostile_tt
				check_variable = { from.bosniak_attitude < 2 }
			}
		}
		days_remove = 60
		cost = 15
		fire_only_once = no
		ai_will_do = {
			factor = 0
			modifier = {
				factor = 0
				is_historical_focus_on = yes
			}
		}
		visible = {
			has_stability < 0.8
			has_war_support < 0.8
			custom_trigger_tooltip = {
				tooltip = bos_Bosniak_attitude_Hostile_tt
				check_variable = { from.bosniak_attitude < 2 }
			}
		}
		complete_effect = {
		add_stability = -0.091
		}
		remove_effect = {
		add_stability = 0.127
		add_war_support = 0.124
		custom_effect_tooltip = bos_Bosniak_attitude_towards_us_will_lower_tt
			add_to_variable = {
				var = bosniak_attitude
				value = -1
			}
			custom_effect_tooltip = bos_bosniak_stability_will_lower_tt
			add_to_variable = {
				var = bosniak_stability
				value = -1
			}
			clamp_variable = { var = croat_attitude min = 1 max = 4 }
			clamp_variable = { var = srpska_attitude min = 1 max = 4 }
			clamp_variable = { var = bosniak_attitude min = 1 max = 4 }
			clamp_variable = { var = croat_stability min = 1 max = 4 }
			clamp_variable = { var = srpska_stability min = 1 max = 4 }
			clamp_variable = { var = bosniak_stability min = 1 max = 4 }
		set_temp_variable = { party_index = 14 }
		set_temp_variable = { party_popularity_increase = 0.02 }
		set_temp_variable = { temp_outlook_increase = 0.02 }
		add_relative_party_popularity = yes
		set_temp_variable = { party_index = 18 }
		set_temp_variable = { party_popularity_increase = 0.02 }
		set_temp_variable = { temp_outlook_increase = 0.02 }
		add_relative_party_popularity = yes
		set_temp_variable = { party_index = 1 }
		set_temp_variable = { party_popularity_increase = -0.07 }
		set_temp_variable = { temp_outlook_increase = -0.05 }
		add_relative_party_popularity = yes
		set_temp_variable = { party_index = 3 }
		set_temp_variable = { party_popularity_increase = -0.07 }
		set_temp_variable = { temp_outlook_increase = -0.05 }
		add_relative_party_popularity = yes
		set_temp_variable = { party_index = 16 }
		set_temp_variable = { party_popularity_increase = 0.07 }
		set_temp_variable = { temp_outlook_increase = 0.05 }
		add_relative_party_popularity = yes
		}
	}
	BOS_colabration_with_Bosniaks = {
		icon = GFX_decision_generic_political_discourse
		allowed = { original_tag = BOS }
		available = {
		has_stability < 0.8
		has_war_support < 0.8
		custom_trigger_tooltip = {
			tooltip = bos_Bosniak_attitude_friendly_tt
			check_variable = { from.bosniak_attitude > 2 }
			check_variable = { from.bosniak_attitude < 4 }
		}
		}
		days_remove = 60
		cost = 15
		fire_only_once = no
		ai_will_do = {
			factor = 0
			modifier = {
				factor = 0
				is_historical_focus_on = yes
			}
		}
		visible = {
			NOT = { check_variable = { from.bosniak_attitude > 3 } }
			has_stability < 0.8
			has_war_support < 0.8
			custom_trigger_tooltip = {
				tooltip = bos_Bosniak_attitude_friendly_tt
				check_variable = { from.bosniak_attitude > 2 }
				check_variable = { from.bosniak_attitude < 4 }
			}
		}
		complete_effect = {
		}
		remove_effect = {
			custom_effect_tooltip = bos_Bosniak_attitude_towards_us_will_rise_tt
			add_to_variable = {
				var = bosniak_attitude
				value = 1
			}
			custom_effect_tooltip = bos_bosniak_stability_will_rise_tt
			add_to_variable = {
				var = bosniak_stability
				value = 1
			}
			clamp_variable = { var = croat_attitude min = 1 max = 4 }
			clamp_variable = { var = srpska_attitude min = 1 max = 4 }
			clamp_variable = { var = bosniak_attitude min = 1 max = 4 }
			clamp_variable = { var = croat_stability min = 1 max = 4 }
			clamp_variable = { var = srpska_stability min = 1 max = 4 }
			clamp_variable = { var = bosniak_stability min = 1 max = 4 }
		}
		ai_will_do = {
			factor = 1
		}
	}
	BOS_Quell_croats = {
		icon = GFX_decision_generic_police_action
		allowed = {
			original_tag = BOS
		}
		available = {
			has_stability < 0.8
			has_war_support < 0.8
			custom_trigger_tooltip = {
				tooltip = bos_croat_attitude_Hostile_tt
				check_variable = { from.bosniak_attitude < 2 }
			}
		}

		days_remove = 60
		cost = 15
		fire_only_once = no
		ai_will_do = {
			factor = 0
			modifier = {
				factor = 0
				is_historical_focus_on = yes
			}
		}
		visible = {
			has_stability < 0.8
			has_war_support < 0.8
			custom_trigger_tooltip = {
				tooltip = bos_croat_attitude_Hostile_tt
				check_variable = { from.bosniak_attitude < 2 }
			}
		}
		complete_effect = {
		add_stability = -0.091
		}
		remove_effect = {
			custom_effect_tooltip = bos_croat_attitude_towards_us_will_lower_tt
			add_to_variable = {
				var = croat_attitude
				value = -1
			}
			custom_effect_tooltip = bos_croat_stability_will_lower_tt
			add_to_variable = {
				var = croat_stability
				value = -1
			}
			clamp_variable = { var = croat_attitude min = 1 max = 4 }
			clamp_variable = { var = srpska_attitude min = 1 max = 4 }
			clamp_variable = { var = bosniak_attitude min = 1 max = 4 }
			clamp_variable = { var = croat_stability min = 1 max = 4 }
			clamp_variable = { var = srpska_stability min = 1 max = 4 }
			clamp_variable = { var = bosniak_stability min = 1 max = 4 }
		add_stability = 0.127
		add_war_support = 0.124
		set_temp_variable = { party_index = 16 }
			set_temp_variable = { party_popularity_increase = -0.07 }
			set_temp_variable = { temp_outlook_increase = -0.042 }
			add_relative_party_popularity = yes
		set_temp_variable = { party_index = 1 }
			set_temp_variable = { party_popularity_increase = 0.08 }
			set_temp_variable = { temp_outlook_increase = 0.012 }
			add_relative_party_popularity = yes
		set_temp_variable = { party_index = 3 }
			set_temp_variable = { party_popularity_increase = 0.08 }
			set_temp_variable = { temp_outlook_increase = 0.012 }
			add_relative_party_popularity = yes
		set_temp_variable = { party_index = 14 }
			set_temp_variable = { party_popularity_increase = 0.08 }
			set_temp_variable = { temp_outlook_increase = 0.012 }
			add_relative_party_popularity = yes
		set_temp_variable = { party_index = 18 }
			set_temp_variable = { party_popularity_increase = 0.08 }
			set_temp_variable = { temp_outlook_increase = 0.012 }
			add_relative_party_popularity = yes
		set_temp_variable = { party_index = 20 }
			set_temp_variable = { party_popularity_increase = 0.06 }
			set_temp_variable = { temp_outlook_increase = 0.012 }
			add_relative_party_popularity = yes
		set_temp_variable = { party_index = 21 }
			set_temp_variable = { party_popularity_increase = 0.06 }
			set_temp_variable = { temp_outlook_increase = 0.012 }
			add_relative_party_popularity = yes
		}
	}
	BOS_gain_Bosniak_popular_support = {
		icon = GFX_decision_eng_propaganda_campaigns
		allowed = {
			original_tag = BOS
		}
		available = {
		has_stability < 0.8
		has_war_support < 0.8
		OR = {
		custom_trigger_tooltip = {
			tooltip = bos_Bosniak_attitude_Hostile_tt
			check_variable = { from.bosniak_attitude < 2 }
		}
		custom_trigger_tooltip = {
			tooltip = bos_Bosniak_attitude_Inconsequential_tt
			check_variable = { from.bosniak_attitude < 3 }
		}
		}
		}
		days_remove = 60
		cost = 15
		fire_only_once = no
		ai_will_do = {
			factor = 0
			modifier = {
				factor = 0
				is_historical_focus_on = yes
			}
		}
		visible = {
			has_stability < 0.8
			has_war_support < 0.8
			OR = {
			custom_trigger_tooltip = {
				tooltip = bos_Bosniak_attitude_Hostile_tt
				check_variable = { from.bosniak_attitude < 2 }
			}
			custom_trigger_tooltip = {
				tooltip = bos_Bosniak_attitude_Inconsequential_tt
				check_variable = { from.bosniak_attitude < 3 }
			}
			}
		}
		complete_effect = { }
		remove_effect = {
			custom_effect_tooltip = bos_croat_attitude_towards_us_will_rise_tt
			add_to_variable = {
				var = bosniak_attitude
				value = 1
			}
			custom_effect_tooltip = bos_croat_stability_will_rise_tt
			add_to_variable = {
				var = bosniak_stability
				value = 1
			}
			clamp_variable = { var = croat_attitude min = 1 max = 4 }
			clamp_variable = { var = srpska_attitude min = 1 max = 4 }
			clamp_variable = { var = bosniak_attitude min = 1 max = 4 }
			clamp_variable = { var = croat_stability min = 1 max = 4 }
			clamp_variable = { var = srpska_stability min = 1 max = 4 }
			clamp_variable = { var = bosniak_stability min = 1 max = 4 }
		}
		ai_will_do = {
			factor = 1
		}
	}
	BOS_colabration_with_croats = {
		icon = GFX_decision_generic_political_discourse
		allowed = {
			original_tag = BOS
		}
		available = {
		has_stability < 0.8
		has_war_support < 0.8
		custom_trigger_tooltip = {
			tooltip = bos_croat_attitude_friendly_tt
			check_variable = { from.croat_attitude > 2 }
			check_variable = { from.croat_attitude < 4 }
		}
		}
		days_remove = 60
		cost = 15
		fire_only_once = no
		ai_will_do = {
			factor = 0
			modifier = {
				factor = 0
				is_historical_focus_on = yes
			}
		}
		visible = {
			NOT = { check_variable = { from.croat_attitude > 3 } }
			has_stability < 0.8
			has_war_support < 0.8
			custom_trigger_tooltip = {
				tooltip = bos_croat_attitude_friendly_tt
				check_variable = { from.croat_attitude > 2 }
				check_variable = { from.croat_attitude < 4 }
			}
		}
		complete_effect = {  }
		remove_effect = {
			custom_effect_tooltip = bos_croat_attitude_towards_us_will_rise_tt
			add_to_variable = {
				var = croat_attitude
				value = 1
			}
			custom_effect_tooltip = bos_croat_stability_will_rise_tt
			add_to_variable = {
				var = croat_stability
				value = 1
			}
			clamp_variable = { var = croat_attitude min = 1 max = 4 }
			clamp_variable = { var = srpska_attitude min = 1 max = 4 }
			clamp_variable = { var = bosniak_attitude min = 1 max = 4 }
			clamp_variable = { var = croat_stability min = 1 max = 4 }
			clamp_variable = { var = srpska_stability min = 1 max = 4 }
			clamp_variable = { var = bosniak_stability min = 1 max = 4 }
		}
		ai_will_do = {
			factor = 1
		}
	}
	BOS_gain_croat_popular_support = {
		icon = GFX_decision_eng_propaganda_campaigns
		allowed = {
			original_tag = BOS
		}
		available = {
		has_stability < 0.8
		has_war_support < 0.8
		OR = {
		custom_trigger_tooltip = {
			tooltip = bos_croat_attitude_Hostile_tt
			check_variable = { from.croat_attitude < 2 }
		}
		custom_trigger_tooltip = {
			tooltip = bos_croat_attitude_Inconsequential_tt
			check_variable = { from.croat_attitude < 3 }
		}
		}
		}
		days_remove = 60
		cost = 15
		fire_only_once = no
		ai_will_do = {
			factor = 0
			modifier = {
				factor = 0
				is_historical_focus_on = yes
			}
		}
		visible = {
			has_stability < 0.8
			has_war_support < 0.8
			OR = {
			custom_trigger_tooltip = {
				tooltip = bos_croat_attitude_Hostile_tt
				check_variable = { from.croat_attitude < 2 }
			}
			custom_trigger_tooltip = {
				tooltip = bos_croat_attitude_Inconsequential_tt
				check_variable = { from.croat_attitude < 3 }
			}
			}
		}
		complete_effect = {
		}
		remove_effect = {
			custom_effect_tooltip = bos_croat_attitude_towards_us_will_rise_tt
			add_to_variable = {
				var = croat_attitude
				value = 1
			}
			custom_effect_tooltip = bos_croat_stability_will_rise_tt
			add_to_variable = {
				var = croat_stability
				value = 1
			}
			clamp_variable = { var = croat_attitude min = 1 max = 4 }
			clamp_variable = { var = srpska_attitude min = 1 max = 4 }
			clamp_variable = { var = bosniak_attitude min = 1 max = 4 }
			clamp_variable = { var = croat_stability min = 1 max = 4 }
			clamp_variable = { var = srpska_stability min = 1 max = 4 }
			clamp_variable = { var = bosniak_stability min = 1 max = 4 }
		}
		ai_will_do = {
			factor = 1
		}
	}
	BOS_destabilize_the_government = {
		icon = GFX_decision_eng_propaganda_campaigns
		allowed = {
			original_tag = BOS
		}
		available = {
		has_stability > 0.8
		has_war_support > 0.8
		}

		days_remove = 60
		cost = 50
		fire_only_once = no
		ai_will_do = {
			factor = 0
			modifier = {
				factor = 0
				is_historical_focus_on = yes
			}
		}
		visible = {
			has_stability > 0.8
			has_war_support > 0.8
		}
		complete_effect = {
			add_stability = -0.54
			add_war_support = -0.52
		}
		remove_effect = {
		}
	}
	#leader_rotating
	BOS_Roatation_of_leaders = {
		icon = GFX_decision_SWI_no_elected_president
		allowed = {
			original_tag = BOS
		}
		available = {
			has_war = no
			OR = {
				has_idea = bos_rotating_presidency
				has_idea = bos_rotating_presidency2
				has_idea = bos_rotating_presidency3
			}
			NOT = {
				has_country_flag = BOS_Roatation_of_leaders1
				has_idea = bos_formed_yugo
			}
		}
		cost = 10
		days_remove = 5
		fire_only_once = no
		ai_will_do = {
			factor = 0
			modifier = {
				factor = 0
				is_historical_focus_on = yes
			}
		}
		visible = {
			OR = {
				has_idea = bos_rotating_presidency
				has_idea = bos_rotating_presidency2
				has_idea = bos_rotating_presidency3
			}
			NOT = { has_government = fascism }
		}
		complete_effect = {
			custom_effect_tooltip = bos_switches_leader
			#hidden_effect = {
			clr_country_flag = Bos_overtime_For_leader
			clr_country_flag = BOS_Roatation_of_leaders1
			set_country_flag = { flag = BOS_Roatation_of_leaders1 days = 240 value = 1 }
			set_country_flag = { flag = Bos_overtime_For_leader }
			if = {
				limit = {
				has_country_flag = Bosnia_a_Serb_is_in_power
				date > 2000.01.01
				date < 2002.08.28
				}
				set_country_flag = Bosnia_a_Croat_is_in_power
				clr_country_flag = Bosnia_a_Serb_is_in_power
				custom_effect_tooltip = bosnia_zivko_Radisic
				set_politics = {
					ruling_party = neutrality
					elections_allowed = yes
				}
				clr_country_flag = Bosnia_SDA
				clr_country_flag = Bosnia_SNSD
				clear_array = ruling_party
				clear_array = gov_coalition_array
				add_to_array = { ruling_party = 18 }
				update_party_name = yes
				update_government_coalition_strength = yes
				set_temp_variable = { party_index = 18 }
				set_temp_variable = { party_popularity_increase = 0.05 }
				set_temp_variable = { temp_outlook_increase = 0.10 }
				add_relative_party_popularity = yes
				create_country_leader = {
					name = "Živko Radišić"
					picture = "zivko_radisic.dds"
					ideology = neutral_Social
					traits = {
						western_conservatism
						Versatile_Visionary
						Unwavering_Patriot
					}
				}
			}
			else_if = {
				limit = {
				has_country_flag = Bosnia_a_Croat_is_in_power
				date > 2000.01.01
				date < 2002.08.28
				}
				set_country_flag = Bosnia_a_bosniak_is_in_power
				clr_country_flag = Bosnia_a_Croat_is_in_power
				custom_effect_tooltip = Bosnia_Ante_Jelavic
				set_politics = {
					ruling_party = nationalist
					elections_allowed = yes
				}
				#set_country_flag = Bosnia_SDA
				#clr_country_flag = has_country_flag = Bosnia_SNSD
				clear_array = ruling_party
				clear_array = gov_coalition_array
				add_to_array = { ruling_party = 20 }
				update_party_name = yes
				update_government_coalition_strength = yes
				set_temp_variable = { party_index = 20 }
				set_temp_variable = { party_popularity_increase = 0.05 }
				set_temp_variable = { temp_outlook_increase = 0.10 }
				add_relative_party_popularity = yes
				create_country_leader = {
					name = "Ante Jelavić"
					picture = "ante_jelavic.dds"
					ideology = Nat_Populism
					traits = {
						western_conservatism
						Divisive_Nationalist
					}
				}
			} ##2000 - 2002 alt bosnia
			else_if = {
				limit = {
				has_country_flag = Bosnia_a_bosniak_is_in_power
				date > 2000.01.01
				date < 2002.08.28
				}
				set_country_flag = Bosnia_a_Serb_is_in_power
				clr_country_flag = Bosnia_a_bosniak_is_in_power
				custom_effect_tooltip = bosnia_Halid_Genjac
				set_politics = {
					ruling_party = democratic
					elections_allowed = yes
				}
				set_country_flag = Bosnia_SDA
				clr_country_flag = Bosnia_sbih
				clear_array = ruling_party
				clear_array = gov_coalition_array
				add_to_array = { ruling_party = 1 }
				update_party_name = yes
				update_government_coalition_strength = yes
				set_temp_variable = { party_index = 1 }
				set_temp_variable = { party_popularity_increase = 0.05 }
				set_temp_variable = { temp_outlook_increase = 0.10 }
				add_relative_party_popularity = yes
				create_country_leader = {
					name = "Halid Genjac"
					picture = "Halid_Genjac.dds"
					ideology = conservatism
					traits = {
						western_conservatism
						One_Armed_Activist
					}
				}
			} ##2002 - 2006
			else_if = {
				limit = {
				has_country_flag = Bosnia_a_bosniak_is_in_power
				date > 2002.08.28
				date < 2006.08.28
				}
				set_country_flag = Bosnia_a_Serb_is_in_power
				clr_country_flag = Bosnia_a_bosniak_is_in_power
				custom_effect_tooltip = bosnia_Sulejman_Tihic
				set_politics = {
					ruling_party = democratic
					elections_allowed = yes
				}
				set_country_flag = Bosnia_SDA
				clr_country_flag = Bosnia_sbih
				clear_array = ruling_party
				clear_array = gov_coalition_array
				add_to_array = { ruling_party = 1 }
				update_party_name = yes
				update_government_coalition_strength = yes
				set_temp_variable = { party_index = 1 }
				set_temp_variable = { party_popularity_increase = 0.05 }
				set_temp_variable = { temp_outlook_increase = 0.10 }
				add_relative_party_popularity = yes
				create_country_leader = {
					name = "Sulejman Tihić"
					picture = "Sulejman_Tihic.dds"
					ideology = conservatism
					traits = {
						western_conservatism
						Versatile_Visionary
					}
				}
			}
			else_if = {
				limit = {
				has_country_flag = Bosnia_a_Serb_is_in_power
				date > 2002.08.28
				date < 2006.08.28
				}
				set_country_flag = Bosnia_a_Croat_is_in_power
				clr_country_flag = Bosnia_a_Serb_is_in_power
				custom_effect_tooltip = bosnia_Mirko_sarovic
				set_politics = {
					ruling_party = neutrality
					elections_allowed = yes
				}
				set_country_flag = Bosnia_SDS
				clr_country_flag = Bosnia_PDP
				clear_array = ruling_party
				clear_array = gov_coalition_array
				add_to_array = { ruling_party = 14 }
				update_party_name = yes
				update_government_coalition_strength = yes
				set_temp_variable = { party_index = 14 }
				set_temp_variable = { party_popularity_increase = 0.05 }
				set_temp_variable = { temp_outlook_increase = 0.10 }
				add_relative_party_popularity = yes
				create_country_leader = {
					name = "Mirko Šarović"
					picture = "Mirko_sarovic.dds"
					ideology = Neutral_conservatism
					traits = {
						western_conservatism
						Pragmatic_Perfectionist
						The_Tenacious_Titan
					}
				}
			}
			else_if = {
				limit = {
				has_country_flag = Bosnia_a_Croat_is_in_power
				date > 2002.08.28
				date < 2006.08.28
				}
				set_country_flag = Bosnia_a_bosniak_is_in_power
				clr_country_flag = Bosnia_a_Croat_is_in_power
				custom_effect_tooltip = Bosnia_Dragan_covic
				set_politics = {
					ruling_party = nationalist
					elections_allowed = yes
				}
				set_country_flag = Bosnia_SDS
				#clr_country_flag = Bosnia_sbih
				clear_array = ruling_party
				clear_array = gov_coalition_array
				add_to_array = { ruling_party = 20 }
				update_party_name = yes
				update_government_coalition_strength = yes
				set_temp_variable = { party_index = 20 }
				set_temp_variable = { party_popularity_increase = 0.05 }
				set_temp_variable = { temp_outlook_increase = 0.10 }
				add_relative_party_popularity = yes
				create_country_leader = {
					name = "Dragan Čović"
					picture = "Dragan_covic.dds"
					ideology = Nat_Populism
					traits = {
						western_conservatism
						Versatile_Visionary
					}
				}
			} ##2006 - 2010
			else_if = {
				limit = {
				has_country_flag = Bosnia_a_bosniak_is_in_power
				date > 2006.08.28
				date < 2010.11.17
				}
				set_country_flag = Bosnia_a_Serb_is_in_power
				clr_country_flag = Bosnia_a_bosniak_is_in_power
				custom_effect_tooltip = bosnia_Haris_Silajdzic
				set_politics = {
					ruling_party = democratic
					elections_allowed = yes
				}
				set_country_flag = Bosnia_sbih
				clr_country_flag = Bosnia_SDA
				clear_array = ruling_party
				clear_array = gov_coalition_array
				add_to_array = { ruling_party = 1 }
				update_party_name = yes
				update_government_coalition_strength = yes
				set_temp_variable = { party_index = 1 }
				set_temp_variable = { party_popularity_increase = 0.05 }
				set_temp_variable = { temp_outlook_increase = 0.10 }
				add_relative_party_popularity = yes
				create_country_leader = {
					name = "Haris Silajdžić"
					picture = "Haris_Silajdzic.dds"
					ideology = conservatism
					traits = {
						western_conservatism
						The_Fearless_Fighter

					}
				}
			}
			else_if = {
				limit = {
				has_country_flag = Bosnia_a_Serb_is_in_power
				date > 2006.08.28
				date < 2010.11.17
				}
				set_country_flag = Bosnia_a_Croat_is_in_power
				clr_country_flag = Bosnia_a_Serb_is_in_power
				custom_effect_tooltip = bosnia_Nebojsa_Radmanovic
				set_politics = {
					ruling_party = democratic
					elections_allowed = yes
				}
				set_country_flag = Bosnia_SDS
				clr_country_flag = Bosnia_PDP
				clear_array = ruling_party
				clear_array = gov_coalition_array
				update_government_coalition_strength = yes
				add_to_array = { ruling_party = 1 }
				update_party_name = yes
				set_temp_variable = { party_index = 1 }
				set_temp_variable = { party_popularity_increase = 0.05 }
				set_temp_variable = { temp_outlook_increase = 0.10 }
				add_relative_party_popularity = yes
				create_country_leader = {
					name = "Nebojša Radmanović"
					picture = "Nebojsa_Radmanovic.dds"
					ideology = conservatism
					traits = {
						western_conservatism
						Versatile_Visionary
						From_the_Front_Lines_to_the_Halls_of_Power
					}
				}
			}
			else_if = {
				limit = {
				has_country_flag = Bosnia_a_Croat_is_in_power
				date > 2006.08.28
				date < 2010.11.17
				}
				set_country_flag = Bosnia_a_bosniak_is_in_power
				clr_country_flag = Bosnia_a_Croat_is_in_power
				custom_effect_tooltip = Bosnia_zeljko_Komsic
				set_politics = {
					ruling_party = democratic
					elections_allowed = yes
				}
				#set_country_flag = Bosnia_SDS
				#clr_country_flag = Bosnia_PDP
				clear_array = ruling_party
				clear_array = gov_coalition_array
				update_government_coalition_strength = yes
				add_to_array = { ruling_party = 3 }
				update_party_name = yes
				set_temp_variable = { party_index = 3 }
				set_temp_variable = { party_popularity_increase = 0.05 }
				set_temp_variable = { temp_outlook_increase = 0.10 }
				add_relative_party_popularity = yes
				create_country_leader = {
					name = "Željko Komšić"
					picture = "zeljko_Komsic.dds"
					ideology = socialism
					traits = {
						western_conservatism
						Against_the_Grain
						Uncompromising_Leader
					}
				}
			} ###2010 - random from now on
			else_if = {
				limit = {
				has_country_flag = Bosnia_a_bosniak_is_in_power
				date > 2010.11.17
				}
				set_country_flag = Bosnia_a_Serb_is_in_power
				clr_country_flag = Bosnia_a_bosniak_is_in_power
				custom_effect_tooltip = Bosnia_bosnia_random
				random_list = {
					40 = {
						set_politics = {
							ruling_party = neutrality
							elections_allowed = yes
						}
						set_country_flag = Bosnia_SNSD
						clr_country_flag = Bosnia_DF
						clear_array = ruling_party
						clear_array = gov_coalition_array
						add_to_array = { ruling_party = 18 }
						update_party_name = yes
						update_government_coalition_strength = yes
						set_temp_variable = { party_index = 18 }
						set_temp_variable = { party_popularity_increase = 0.05 }
						set_temp_variable = { temp_outlook_increase = 0.10 }
						add_relative_party_popularity = yes
						create_country_leader = {
							name = "Nebojša Radmanović"
							picture = "Nebojsa_Radmanovic.dds"
							ideology = neutral_Social
							traits = {
								western_conservatism
								Versatile_Visionary
								From_the_Front_Lines_to_the_Halls_of_Power
							}
						}
					}
					30 = {
						set_politics = {
							ruling_party = neutrality
							elections_allowed = yes
						}
						set_country_flag = Bosnia_SNSD
						clr_country_flag = Bosnia_DF
						clear_array = ruling_party
						clear_array = gov_coalition_array
						add_to_array = { ruling_party = 18 }
						update_party_name = yes
						update_government_coalition_strength = yes
						set_temp_variable = { party_index = 18 }
						set_temp_variable = { party_popularity_increase = 0.05 }
						set_temp_variable = { temp_outlook_increase = 0.10 }
						add_relative_party_popularity = yes
						create_country_leader = {
							name = "Željka Cvijanović"
							picture = "zeljka_Cvijanovic.dds"
							ideology = neutral_Social
							traits = {
								western_conservatism
								The_Enforcer
								Steadfast_Protector
							}
						}
					}
					30 = {
						set_politics = {
							ruling_party = neutrality
							elections_allowed = yes
						}
						set_country_flag = Bosnia_SNSD
						clr_country_flag = Bosnia_DF
						clear_array = ruling_party
						clear_array = gov_coalition_array
						add_to_array = { ruling_party = 18 }
						update_party_name = yes
						update_government_coalition_strength = yes
						set_temp_variable = { party_index = 18 }
						set_temp_variable = { party_popularity_increase = 0.05 }
						set_temp_variable = { temp_outlook_increase = 0.10 }
						add_relative_party_popularity = yes
						create_country_leader = {
							name = "Milorad Dodik"
							picture = "milorad_dodik.dds"
							ideology = neutral_Social
							traits = {
								emerging_Conservative
								Fierce_Defender_of_Republika_Srpska
							}
						}
					}
				}
			}
			else_if = {
				limit = {
				has_country_flag = Bosnia_a_Serb_is_in_power
				date > 2010.11.17
				}
				set_country_flag = Bosnia_a_Croat_is_in_power
				clr_country_flag = Bosnia_a_Serb_is_in_power
				custom_effect_tooltip = Bosnia_serb_random
				random_list = {
					60 = {
						set_politics = {
							ruling_party = democratic
							elections_allowed = yes
						}
						set_country_flag = Bosnia_SDA
						clr_country_flag = Bosnia_sbih
						clear_array = ruling_party
						clear_array = gov_coalition_array
						add_to_array = { ruling_party = 1 }
						update_party_name = yes
						update_government_coalition_strength = yes
						set_temp_variable = { party_index = 1 }
						set_temp_variable = { party_popularity_increase = 0.05 }
						set_temp_variable = { temp_outlook_increase = 0.10 }
						add_relative_party_popularity = yes
						create_country_leader = {
							name = "Bakir Izetbegovic"
							picture = "bakir_izetbegovic.dds"
							ideology = conservatism
							traits = {
								western_conservatism
								Anti_Corruption_Crusader
								defender_of_Bosniak_interests
								politica_cronyism
							}
						}
					}
					40 = {
						set_politics = {
							ruling_party = neutrality
							elections_allowed = yes
						}
						set_country_flag = Bosnia_SDA
						clr_country_flag = Bosnia_sbih
						clear_array = ruling_party
						clear_array = gov_coalition_array
						add_to_array = { ruling_party = 1 }
						update_party_name = yes
						update_government_coalition_strength = yes
						set_temp_variable = { party_index = 1 }
						set_temp_variable = { party_popularity_increase = 0.05 }
						set_temp_variable = { temp_outlook_increase = 0.10 }
						add_relative_party_popularity = yes
						create_country_leader = {
							name = "sefik Dzaferovic"
							picture = "sefik_Dzaferovicpng.dds"
							ideology = neutral_Social
							traits = {
								western_conservatism
								Bosnia_s_Bridge_Builder
								Eye_of_the_Storm
							}
						}
					}
				}
			}
			else_if = {
				limit = {
				has_country_flag = Bosnia_a_Croat_is_in_power
				date > 2010.11.17
				}
				set_country_flag = Bosnia_a_bosniak_is_in_power
				clr_country_flag = Bosnia_a_Croat_is_in_power
				custom_effect_tooltip = Bosnia_croat_random
				random_list = {
					50 = {
						set_politics = {
							ruling_party = nationalist
							elections_allowed = yes
						}
						set_country_flag = Bosnia_SDS
						#clr_country_flag = Bosnia_sbih
						clear_array = ruling_party
						clear_array = gov_coalition_array
						add_to_array = { ruling_party = 20 }
						update_party_name = yes
						update_government_coalition_strength = yes
						set_temp_variable = { party_index = 20 }
						set_temp_variable = { party_popularity_increase = 0.05 }
						set_temp_variable = { temp_outlook_increase = 0.10 }
						add_relative_party_popularity = yes
						create_country_leader = {
							name = "Dragan Čović"
							picture = "Dragan_covic.dds"
							ideology = Nat_Populism
							traits = {
								western_conservatism
								Versatile_Visionary
							}
						}
					}
					50 = {
						set_politics = {
							ruling_party = neutrality
							elections_allowed = yes
						}
						clr_country_flag = Bosnia_SNSD
						set_country_flag = Bosnia_DF
						clear_array = ruling_party
						clear_array = gov_coalition_array
						add_to_array = { ruling_party = 18 }
						update_party_name = yes
						update_government_coalition_strength = yes
						set_temp_variable = { party_index = 16 }
						set_temp_variable = { party_popularity_increase = 0.05 }
						set_temp_variable = { temp_outlook_increase = 0.10 }
						add_relative_party_popularity = yes
						create_country_leader = {
							name = "Željko Komšić"
							picture = "zeljko_Komsic.dds"
							ideology = neutral_Social
							traits = {
								western_conservatism
								Against_the_Grain
								Uncompromising_Leader
							}
						}
					}
				}
			}

		#}#
		}
		remove_effect = {
		set_country_flag = Bos_sovertime_For_leader
		}
		ai_will_do = {
			factor = 10
		}
	}
	#unset over time in office
	#nah this shit just pissing me off idc it adds very little
	BOS_Srpska_declares_indpend = {
		icon = GFX_decision_revolt
		allowed = { always = yes }
		available = {
			OR = {
				has_country_flag = bosnian_civil_war_over
				has_country_flag = civil_war_bosnia  }
				check_variable = { from.srpska_attitude < 4 }
		}
		activation = {
		NOT = { has_completed_focus = BOS_National_awakening }
		#NOT = {	has_country_flag = srpska_flag_bosnia }
		has_stability < 0.3
		OR = {
		has_idea = bos_rotating_presidency
		has_idea = bos_rotating_presidency2
		}
		check_variable = { from.srpska_attitude < 4 }
		}
		cancel_trigger = {
			custom_trigger_tooltip = {
			tooltip = bos_serbian_attitude_loyal_tt
			check_variable = { from.srpska_attitude > 3 }
			}
			has_stability > 0.3
		}
		days_mission_timeout = 25
		#days_remove = 1
		is_good = no
		fire_only_once = yes #cycled
		timeout_effect = {
			hidden_effect = {
				set_variable = { srpska_attitude = 1 }
				set_variable = { bosniak_attitude = 2 }
				set_variable = { croat_attitude = 1 }
				set_variable = { srpska_stability = 1 }
				set_variable = { bosniak_stability = 2 }
				set_variable = { croat_stability = 1 }
				set_variable = { srpska_manpower = 1 }
				set_variable = { bosniak_manpower = 2 }
				set_variable = { croat_manpower = 1 }
				}
			release = RSK
			add_ideas = BOS_bosniak_balkan_aspiration
			country_event = Bosnia.1
			transfer_units_fraction = {
				target = RSK
				size = 0.0
				stockpile_ratio = 0.1
				army_ratio = 0.0
				navy_ratio = 0.0
				air_ratio = 0.0
				keep_unit_leaders_trigger = { }
				}
				129 = { set_demilitarized_zone = no }
				1053 = { set_demilitarized_zone = no }
				1054 = { set_demilitarized_zone = no }
				128 = {
					create_unit = {
						division = "name = \"Južna milicija farmera\" division_template = \"Milicija Divizija\" start_experience_factor = 2"
						owner = BOS
					}
					create_unit = {
						division = "name = \"Rudarska milicija\" division_template = \"Milicija Divizija\" start_experience_factor = 2"
						owner = BOS
					}
					create_unit = {
						division = "name = \"Narodna milicija\" division_template = \"Milicija Divizija\" start_experience_factor = 2"
						owner = BOS
					}
					create_unit = {
						division = "name = \"Komunistička milicija\" division_template = \"Milicija Divizija\" start_experience_factor = 1"
						owner = BOS
					}
					create_unit = {
						division = "name = \"Milicija narodnog fronta Hrvata\" division_template = \"Milicija Divizija\" start_experience_factor = 0"
						owner = BOS
					}
				}
				RSK = {
				129 = {
					create_unit = {
						division = "name = \"Južna milicija farmera\" division_template = \"Milicija Divizija\" start_experience_factor = 1"
						owner = RSK
					}
					create_unit = {
						division = "name = \"Rudarska milicija\" division_template = \"Milicija Divizija\" start_experience_factor = 0"
						owner = RSK
					}
					create_unit = {
						division = "name = \"Narodna milicija\" division_template = \"Milicija Divizija\" start_experience_factor = 1"
						owner = RSK
					}
					}
					1054 = {
					create_unit = {
						division = "name = \"Komunistička milicija\" division_template = \"Milicija Divizija\" start_experience_factor = 0"
						owner = RSK
					}
					create_unit = {
						division = "name = \"Milicija narodnog fronta Hrvata\" division_template = \"Milicija Divizija\" start_experience_factor = 0"
						owner = RSK
					}
			}
			}
		}
	}
	BOS_bosniaks_declares_indpend = {
		icon = GFX_decision_revolt
		allowed = { always = yes }
		available = {
			always = no
		}
		activation = {
			always = no
		}
		cancel_trigger = {
			check_variable = { from.croat_attitude > 3 }
			check_variable = { from.srpska_attitude > 3 }
			check_variable = { from.bosniak_attitude > 3 }
			has_stability > 0.3
		}
		days_mission_timeout = 25
		#days_remove = 1
		is_good = no
		fire_only_once = yes #cycled
		timeout_effect = {
			hidden_effect = {
				set_variable = { srpska_attitude = 1 }
				set_variable = { bosniak_attitude = 2 }
				set_variable = { croat_attitude = 1 }
				set_variable = { srpska_stability = 1 }
				set_variable = { bosniak_stability = 2 }
				set_variable = { croat_stability = 1 }
				set_variable = { srpska_manpower = 1 }
				set_variable = { bosniak_manpower = 2 }
				set_variable = { croat_manpower = 1 }
				}
			release = RSK
			BOS = { add_ideas = BOS_bosniak_balkan_aspiration }
			country_event = Bosnia.1
			129 = { set_demilitarized_zone = no }
			1053 = { set_demilitarized_zone = no }
			1054 = { set_demilitarized_zone = no }
			transfer_units_fraction = {
				target = RSK
				size = 0.0
				stockpile_ratio = 0.1
				army_ratio = 0.0
				navy_ratio = 0.0
				air_ratio = 0.0
				keep_unit_leaders_trigger = { }
				}
				128 = {
					create_unit = {
						division = "name = \"Južna milicija farmera\" division_template = \"Milicija Divizija\" start_experience_factor = 2"
						owner = BOS
					}
					create_unit = {
						division = "name = \"Rudarska milicija\" division_template = \"Milicija Divizija\" start_experience_factor = 2"
						owner = BOS
					}
					create_unit = {
						division = "name = \"Narodna milicija\" division_template = \"Milicija Divizija\" start_experience_factor = 2"
						owner = BOS
					}
					create_unit = {
						division = "name = \"Komunistička milicija\" division_template = \"Milicija Divizija\" start_experience_factor = 1"
						owner = BOS
					}
					create_unit = {
						division = "name = \"Milicija narodnog fronta Hrvata\" division_template = \"Milicija Divizija\" start_experience_factor = 0"
						owner = BOS
					}
				}
				RSK = {
				129 = {
					create_unit = {
						division = "name = \"Južna milicija farmera\" division_template = \"Milicija Divizija\" start_experience_factor = 1"
						owner = RSK
					}
					create_unit = {
						division = "name = \"Rudarska milicija\" division_template = \"Milicija Divizija\" start_experience_factor = 0"
						owner = RSK
					}
					create_unit = {
						division = "name = \"Narodna milicija\" division_template = \"Milicija Divizija\" start_experience_factor = 1"
						owner = RSK
					}
					}
					1054 = {
					create_unit = {
						division = "name = \"Komunistička milicija\" division_template = \"Milicija Divizija\" start_experience_factor = 0"
						owner = RSK
					}
					create_unit = {
						division = "name = \"Milicija narodnog fronta Hrvata\" division_template = \"Milicija Divizija\" start_experience_factor = 0"
						owner = RSK
					}
				}
			}
		}
	}
	BOS_croats_declares_indpend = {
		icon = GFX_decision_revolt
		allowed = { always = yes }
		available = {
			OR = {
			has_country_flag = bosnian_civil_war_over
			has_country_flag = civil_war_bosnia  }
			check_variable = { from.croat_attitude < 4 }
				##check_variable = { from.bosniak_attitude < 4 }
		}
		activation = {
			original_tag = BOS
			has_stability < 0.3
			OR = {
			has_idea = bos_rotating_presidency
			has_idea = bos_rotating_presidency2
			}
			check_variable = { from.croat_attitude < 4 }
		}
		cancel_trigger = {
			custom_trigger_tooltip = {
				tooltip = bos_croat_attitude_loyal_tt
				check_variable = { from.croat_attitude > 3 }
			}
			has_stability > 0.3
		}
		days_mission_timeout = 25
		#days_remove = 1
		is_good = no
		fire_only_once = yes #cycled
		timeout_effect = {
			hidden_effect = {
				set_variable = { srpska_attitude = 1 }
				set_variable = { bosniak_attitude = 2 }
				set_variable = { croat_attitude = 1 }
				set_variable = { srpska_stability = 1 }
				set_variable = { bosniak_stability = 2 }
				set_variable = { croat_stability = 1 }
				set_variable = { srpska_manpower = 1 }
				set_variable = { bosniak_manpower = 2 }
				set_variable = { croat_manpower = 1 }
				}
			release = HZG
			add_ideas = BOS_bosniak_balkan_aspiration
			BOS = { country_event = { id = Bosnia.2  days = 2 } }
			1052 = { set_demilitarized_zone = no }
		}
	}
}
recognition_category = {
	BOS_croats_declares_indpend_hidden = {
		icon = GFX_decision_revolt
		allowed = { always = yes }
		available = {
			has_country_flag = bosnian_civil_war_over
			has_country_flag = civil_war_bosnia
		}
		activation = {
			NOT = {
				OR = {
					has_country_flag = bosnian_civil_war_over
					has_country_flag = civil_war_bosnia  } }
			NOT = { has_completed_focus = BOS_National_awakening }
			original_tag = BOS
			has_stability < 0.3
			OR = {
			has_idea = bos_rotating_presidency
			has_idea = bos_rotating_presidency2
			}
		}
		visible = {
			always = no
		}
		days_mission_timeout = 0
		#days_remove = 1
		is_good = no
		fire_only_once = yes #cycled
		timeout_effect = {
			1052 = { set_demilitarized_zone = yes }
			129 = { set_demilitarized_zone = yes }
			1053 = { set_demilitarized_zone = yes }
			1054 = { set_demilitarized_zone = yes }
		}
	}
}

