
strategic_region={
	id=136
	name="STRATEGICREGION_136"
	provinces={
		464 477 508 642 832 939 1220 1229 1243 1272 1276 1287 1303 1331 1375 1402 1517 1662 1694 1818 1840 1864 1879 3538 3618 3622 4238 4250 4254 4281 4294 4303 4333 4376 4389 4523 4595 4651 4661 4670 4674 4685 4764 4845 4850 4867 6525 6588 7233 7298 7313 7322 7326 7332 7337 7341 7350 7357 7370 7383 7392 7405 7407 7425 7438 7708 7711 7741 7784 7856 7874 7890 9453 9462 9487 10131 10140 10146 10161 10164 10168 10211 10218 10220 10239 10262 10268 10277 10284 10290 10308 10312 10452 10508 10547 10550 10610 10619 10630 10633 10653 11442 11473 11480 11482 11510 11524 11537 11552 11701 12108 12111 12139 12152 12170 12177 12179 12198 12229 12257 12266 12294 12383 12427 12529 12564 12594 12616 12619 12635 13008 13148 13149 13151 13197 13210 13211 13223 14294 14347 14349 14350 14351 14352 14353 14354 14355 14356 14357 14358 14359 14360 14361 14371 14372 14373 14374 14494 14495 14927 
	}
	weather={
		period={
			between={ 0.0 30.0 }
			temperature={ -12.0 3.0 }
			#temperature_day_night={ 7.0 -7.0 }
			no_phenomenon=0.250
			rain_light=0.100
			rain_heavy=0.050
			snow=0.400
			blizzard=0.200
			arctic_water=0.000
			mud=1.300
			sandstorm=0.000
			min_snow_level=0.000
		}
		period={
			between={ 0.1 27.1 }
			temperature={ -15.0 3.0 }
			#temperature_day_night={ 7.0 -7.0 }
			no_phenomenon=0.300
			rain_light=0.100
			rain_heavy=0.050
			snow=0.400
			blizzard=0.150
			arctic_water=0.000
			mud=1.300
			sandstorm=0.000
			min_snow_level=0.000
		}
		period={
			between={ 0.2 30.2 }
			temperature={ -4.0 5.0 }
			#temperature_day_night={ 7.0 -7.0 }
			no_phenomenon=0.400
			rain_light=0.150
			rain_heavy=0.050
			snow=0.300
			blizzard=0.100
			arctic_water=0.000
			mud=1.300
			sandstorm=0.000
			min_snow_level=0.000
		}
		period={
			between={ 0.3 29.3 }
			temperature={ 0.0 16.0 }
			#temperature_day_night={ 7.0 -7.0 }
			no_phenomenon=0.500
			rain_light=0.450
			rain_heavy=0.100
			snow=0.150
			blizzard=0.000
			arctic_water=0.000
			mud=1.300
			sandstorm=0.000
			min_snow_level=0.000
		}
		period={
			between={ 0.4 30.4 }
			temperature={ 7.0 19.0 }
			#temperature_day_night={ 6.0 -6.0 }
			no_phenomenon=0.500
			rain_light=0.400
			rain_heavy=0.100
			snow=0.000
			blizzard=0.000
			arctic_water=0.000
			mud=1.300
			sandstorm=0.000
			min_snow_level=0.000
		}
		period={
			between={ 0.5 29.5 }
			temperature={ 11.0 22.0 }
			#temperature_day_night={ 8.0 -8.0 }
			no_phenomenon=0.500
			rain_light=0.250
			rain_heavy=0.150
			snow=0.000
			blizzard=0.000
			arctic_water=0.000
			mud=1.300
			sandstorm=0.000
			min_snow_level=0.000
		}
		period={
			between={ 0.6 30.6 }
			temperature={ 13.0 24.0 }
			#temperature_day_night={ 8.0 -8.0 }
			no_phenomenon=0.500
			rain_light=0.250
			rain_heavy=0.150
			snow=0.000
			blizzard=0.000
			arctic_water=0.000
			mud=1.300
			sandstorm=0.000
			min_snow_level=0.000
		}
		period={
			between={ 0.7 30.7 }
			temperature={ 12.0 23.0 }
			#temperature_day_night={ 8.0 -8.0 }
			no_phenomenon=0.500
			rain_light=0.250
			rain_heavy=0.150
			snow=0.000
			blizzard=0.000
			arctic_water=0.000
			mud=1.300
			sandstorm=0.000
			min_snow_level=0.000
		}
		period={
			between={ 0.8 29.8 }
			temperature={ 7.0 17.0 }
			#temperature_day_night={ 8.0 -8.0 }
			no_phenomenon=0.500
			rain_light=0.250
			rain_heavy=0.150
			snow=0.000
			blizzard=0.000
			arctic_water=0.000
			mud=1.300
			sandstorm=0.000
			min_snow_level=0.000
		}
		period={
			between={ 0.9 30.9 }
			temperature={ 3.0 10.0 }
			#temperature_day_night={ 8.0 -8.0 }
			no_phenomenon=0.450
			rain_light=0.200
			rain_heavy=0.100
			snow=0.150
			blizzard=0.000
			arctic_water=0.000
			mud=1.300
			sandstorm=0.000
			min_snow_level=0.000
		}
		period={
			between={ 0.10 29.10 }
			temperature={ 1.0 5.0 }
			#temperature_day_night={ 8.0 -8.0 }
			no_phenomenon=0.350
			rain_light=0.200
			rain_heavy=0.150
			snow=0.200
			blizzard=0.100
			arctic_water=0.000
			mud=1.300
			sandstorm=0.000
			min_snow_level=0.000
		}
		period={
			between={ 0.11 30.11 }
			temperature={ -7.0 -2.0 }
			#temperature_day_night={ 8.0 -8.0 }
			no_phenomenon=0.200
			rain_light=0.130
			rain_heavy=0.070
			snow=0.450
			blizzard=0.150
			arctic_water=0.000
			mud=1.300
			sandstorm=0.000
			min_snow_level=0.000
		}
	}
}
