# Author(s): AngriestBird, Simone
# Improved by KyCb(rockon)
##############################
##Compendium of Combat Width
#Militia Battalion - 3 CW 			#Motorized Airborne Infantry - 4 CW
#Motorized Militia Battalion - 4 CW #Mechanized Airborne Infantry - 4 CW
#Light Infantry - 3 CW				#Armored Airborne Infantry - 4 CW
#Motorized Infantry - 4 CW			#Marine Light Infantry - 3 CW
#Mechanized Infantry - 4 CW			#Motorized Marine Infantry - 4 CW
#Armored Infantry - 4 CW			#Mechanized Marine Infantry - 4 CW
#Airborne Light Infantry - 3 CW		#Armored Marine Infantry - 4 CW
#Light Air Assault Infantry - 3 CW	#Armored Air Assault Infantry - 4 CW
#Special Forces - 3 CW				#Tank Battalion - 4 CW
#Artillery - 3 CW					#SP Arty - 3 CW
#SP AA - 4 CW
#Companies - Support Companies
#Tank Company - 2 CW				#Light Recon - 1 CW
#Motorized Recon - 2 CW				#Mechanized Company - 2 CW
#Armored Recon - 2 CW				#Armored Recce - 2 CW
#Light Engineer - 1 CW				#Heavy Engineer - 2 CW
#Artillery BAttery - 1 CW			#SP Arty - 2 CW
#SP AA - 2 CWf
############################
#garrison
garrison_generic = {
	roles = { garrison }
	upgrade_prio = {
		factor = 0
		modifier = {
			add = 5
			ai_has_role_template = garrison
		}
	}
	match_to_count = 0.5

	Militia_garrison = {
		reinforce_prio = 0
		custom_icon = 7
		upgrade_prio = {
			factor = 1
			modifier = {
				factor = 2
				num_of_military_factories < 3
			}
			modifier = {
				factor = 0
				OR = {
					is_major = yes
					num_of_military_factories > 3
				}
			}
		}
		production_prio = {
			factor = 1
			modifier = {
				factor = 2
				num_of_military_factories < 3
			}
			modifier = {
				factor = 0
				OR = {
					num_of_military_factories > 10
					is_major = yes
					tag = SOV
					tag = USA
					tag = CHI
					tag = GER
					tag = FRA
					tag = ENG
					tag = SPR
					tag = ITA
					tag = BRA
					tag = MEX
					tag = POR
					tag = RAJ
					tag = PAK
					tag = UKR
				}
			}
		}

		target_width = 12
		width_weight = 1
		column_swap_factor = 0.5

		target_template = {
			weight = 0.9
			match_value = 9000.0

			regiments = { #12 Combat Width
				Militia_Bat = 4 #
			}
		}

		allowed_types = {
			Militia_Bat
		}
	}

	L_Inf_gar = {
		reinforce_prio = 0

		upgrade_prio = {
			factor = 1

			modifier = {
				factor = 2
				num_of_military_factories > 4
			}
			modifier = {
				factor = 0
				num_of_military_factories < 5
			}
		}
		production_prio = {
			factor = 1
			modifier = {
				factor = 2
				num_of_military_factories > 6
			}
			modifier = {
				factor = 0
				OR = {
					num_of_military_factories > 20
					is_major = yes
					tag = SOV
					tag = USA
					tag = CHI
					tag = GER
					tag = FRA
					tag = ENG
					tag = SPR
					tag = ITA
					tag = BRA
					tag = MEX
					tag = POR
					tag = RAJ
					tag = PAK
				}
			}
		}
		target_width = 18.0
		width_weight = 1
		column_swap_factor = 0.5

		target_template = {
			weight = 0.9
			match_value = 9000.0

			regiments = {
				L_Inf_Bat = 6
			}
		}

		allowed_types = {
			L_Inf_Bat
		}
	}
}

#light Militia Divisions
Militia_generic = {
	roles = { Militia }
	upgrade_prio = {
		factor = 1
		modifier = {
			factor = 5
			has_civil_war = yes
		}
		modifier = {
			factor = 0
			has_civil_war = no
		}
	}
	match_to_count = 0.6

	Militia_generic = {
		reinforce_prio = 0
		upgrade_prio = {
			factor = 1
			modifier = {
				add = 1
				num_of_military_factories < 4
			}
			modifier = {
				factor = 0
				OR = {
					has_war = no
					num_of_military_factories > 3
					is_major = yes
					has_idea = NATO_member
					is_sco = yes
				}
			}
		}
		production_prio = {
			factor = 1
			modifier = {
				add = 1
				num_of_military_factories < 4
			}
			modifier = {
				factor = 2
				has_civil_war = yes
			}
			modifier = {
				factor = 0
				OR = {
					has_war = no
					num_of_military_factories > 3
					is_major = yes
					has_idea = NATO_member
					is_sco = yes
				}
			}
		}

		target_width = 15
		width_weight = 1
		column_swap_factor = 0.5

		target_template = {
			weight = 0.9
			match_value = 9000.0

			regiments = { #15 CW
				Militia_Bat = 5
			}
		}

		allowed_types = {
			Militia_Bat
		}

	}
	militia_brigade = {
		reinforce_prio = 0
		upgrade_prio = {
			factor = 1
			modifier = {
				add = 1
				num_of_military_factories < 5
			}
			modifier = {
				factor = 2
				has_civil_war = yes
			}
			modifier = {
				factor = 0
				OR = {
					has_war = no
					num_of_military_factories > 9
					is_major = yes
					has_idea = NATO_member
					is_sco = yes
				}
			}
		}
		production_prio = {
			factor = 1
			modifier = {
				add = 1
				num_of_military_factories < 5
			}
			modifier = {
				factor = 2
				has_civil_war = yes
			}
			modifier = {
				factor = 0
				OR = {
					has_war = no
					num_of_military_factories > 9
					is_major = yes
					has_idea = NATO_member
					is_sco = yes
				}
			}
		}

		target_width = 29
		width_weight = 1
		column_swap_factor = 0.5

		target_template = {
			weight = 0.9
			match_value = 9000.0

			regiments = {
				Militia_Bat = 9
			}
			support = {
				L_Recce_Comp = 1
				L_Engi_Comp = 1
			}
		}

		allowed_types = {
			Militia_Bat
			L_Recce_Comp
			L_Engi_Comp
		}
	}
	Mot_Militia_generic = {
		reinforce_prio = 0
		upgrade_prio = {
			factor = 1
			modifier = {
				add = 15
				has_civil_war = yes
			}
			modifier = {
				factor = 0
				OR = {
					num_of_military_factories > 7
					has_war = no
					is_major = yes
					has_idea = NATO_member
					is_sco = yes
				}
			}
		}
		production_prio = {
			factor = 1
			modifier = {
				add = 15
				has_civil_war = yes
			}
			modifier = {
				factor = 0
				OR = {
					num_of_military_factories > 7
					has_war = no
					is_major = yes
					has_idea = NATO_member
					is_sco = yes
				}
			}
		}

		target_width = 30
		width_weight = 1
		column_swap_factor = 0.5

		target_template = {
			weight = 0.9
			match_value = 5000.0

			regiments = {
				Mot_Militia_Bat = 7 #7*4 + 2(Mot_Recce_Comp) = 30
			}
			support = {
				Mot_Recce_Comp = 1 #2
			}
			#Total Combat Width = 30
		}

		allowed_types = {
			Mot_Militia_Bat
			Mot_Recce_Comp
		}

	}
}

#Light Divisions
L_Inf_generic = {
	roles = { L_Inf }
	upgrade_prio = { #These should be used extremely sparingly
		factor = 1.8
		modifier = {
			factor = 150
			surrender_progress > 0.50
		}
	}

	match_to_count = 0.5

	L_Inf_brigade = {
		upgrade_prio = {
			factor = 1
			modifier = {
				add = 5
				surrender_progress > 0.50
			}
			modifier = {
				add = 10
				any_enemy_country = {
					strength_ratio = {
						tag = ROOT
						ratio > 0.75
					}
				}
			}
			modifier = {
				add = -10
				OR = {
					num_of_military_factories > 7
					has_equipment = { Inf_equipment < 100 }
					is_major = yes
				}
			}
		}
		production_prio = {
			factor = 1
			modifier = {
				factor = 2
				num_of_military_factories < 7
			}
			modifier = {
				factor = 4
				OR = {
					has_equipment = { apc_hull < 1 }
					has_equipment = { ifv_hull < 1 }
				}
			}
			modifier = {
				factor = 2
				has_equipment = { Inf_equipment > 4500 }
			}
			modifier = {
				factor = 0
				OR = {
					num_of_military_factories > 7
					has_equipment = { Inf_equipment < 100 }
					is_major = yes
				}
			}
		}

		reinforce_prio = 0
		target_width = 30
		width_weight = 1
		column_swap_factor = 0.5

		target_template = {
			weight = 0.9
			match_value = 5000.0

			regiments = {
				L_Inf_Bat = 6
				Arty_Bat = 3
			}
			support = {
				L_Recce_Comp = 1
				L_Engi_Comp = 1
				combat_service_support_company = 1
			}
		}

		allowed_types = {
			L_Inf_Bat
			Arty_Bat
			L_Engi_Comp
			L_Recce_Comp
			combat_service_support_company
		}
	}

	L_Inf_division = {
		upgrade_prio = {
			factor = 1
			modifier = {
				add = 5
				surrender_progress > 0.50
			}
			modifier = {
				add = 10
				any_enemy_country = {
					strength_ratio = {
						tag = ROOT
						ratio > 0.75
					}
				}
			}
			modifier = {
				add = -10
				OR = {
					has_equipment = { Inf_equipment < 100 }
					num_of_military_factories > 15
					num_of_military_factories < 7
					AND = {
						surrender_progress < 0.50
						is_major = yes
					}
				}
			}
		}
		production_prio = {
			factor = 1
			modifier = {
				factor = 2
				has_equipment = { Inf_equipment > 4500 }
			}
			modifier = {
				factor = 0
				OR = {
					has_equipment = { Inf_equipment < 100 }
					num_of_military_factories > 15
					num_of_military_factories < 7
					AND = {
						surrender_progress < 0.50
						is_major = yes
					}
				}
			}
		}

		target_width = 40
		width_weight = 1
		column_swap_factor = 0.5
		reinforce_prio = 0

		target_template = {
			weight = 0.9
			match_value = 6000.0
			regiments = {
				L_Inf_Bat = 9
				Arty_Bat = 3
			}
			support = {
				Arty_Battery = 1
				L_Recce_Comp = 1
				L_Engi_Comp = 1
				combat_service_support_company = 1
			}
		}

		allowed_types = {
			L_Inf_Bat
			Arty_Bat
			Arty_Battery
			L_Recce_Comp
			L_Engi_Comp
			combat_service_support_company
		}
	}
}

#Light Marines
marines_generic = {
	roles = { marines }
	upgrade_prio = {
		factor = 0.9
	}

	match_to_count = 0.8

	light_marine_brigades = {
		upgrade_prio = {
			factor = 1
			modifier = {
				factor = 0
				num_of_military_factories > 5
			}
			modifier = {
				factor = 0
				num_of_naval_factories < 1
			}
		}
		production_prio = {
			factor = 1.5
			modifier = {
				factor = 0
				num_of_military_factories > 5
			}
			modifier = {
				factor = 0
				num_of_naval_factories < 1
			}
		}

		target_width = 31
		width_weight = 1
		column_swap_factor = 0.5

		target_template = {
			weight = 0.9
			match_value = 8000.0

			regiments = {
				L_Marine_Bat = 6
				Arty_Bat = 3
			}
			support = {
				L_Recce_Comp = 1
				L_Engi_Comp = 1
				SP_AA_Battery = 1
				combat_service_support_company = 1
			}
		}

		allowed_types = {
			L_Marine_Bat
			SP_Arty_Bat
			L_Recce_Comp
			L_Engi_Comp
			Arty_Bat
			SP_AA_Battery
			combat_service_support_company
		}
	}
	mot_marines_brigades = {
		upgrade_prio = {
			factor = 0.5
			modifier = {
				factor = 0
				num_of_military_factories > 9
			}
			modifier = {
				factor = 0
				num_of_naval_factories < 1
			}
			modifier = {
				factor = 0
				num_of_military_factories < 6
			}
		}
		production_prio = {
			factor = 1
			modifier = {
				factor = 0
				num_of_military_factories > 9
			}
			modifier = {
				factor = 0
				num_of_naval_factories < 1
			}
			modifier = {
				factor = 0
				num_of_military_factories < 6
			}
		}

		target_width = 30
		width_weight = 1
		column_swap_factor = 0.5

		target_template = {
			weight = 0.9
			match_value = 9000.0

			regiments = {
				Mot_Marine_Bat = 6
			}
			support = {
				H_Engi_Comp = 1
				Mot_Recce_Comp = 1
				Arty_Battery = 1
				combat_service_support_company = 1
			}
		}

		allowed_types = {
			Mot_Marine_Bat
			Arty_Bat
			H_Engi_Comp
			Mot_Recce_Comp
			Arty_Battery
			combat_service_support_company
		}
	}
	meh_marines_division_maj = {
		upgrade_prio = {
			factor = 2
			modifier = {
				factor = 0
				OR = {
					has_idea = minor_power
					has_idea = non_power
					#has_equipment = { apc_hull < 1 }
					num_of_military_factories < 12
				}
			}
			modifier = {
				factor = 0
				num_of_naval_factories < 1
			}
		}
		production_prio = {
			factor = 2
			modifier = {
				factor = 0
				num_of_naval_factories < 1
			}
			modifier = { #Use Regular APCs if you have over 2k
				factor = 5
				has_equipment = { apc_hull > 2000 }
			}
			modifier = { #If Major Ignore Brigades
				factor = 5
				OR = {
					is_major = yes
					has_idea = superpower
				}
			}
			modifier = {
				factor = 0
				OR = {
					has_idea = minor_power
					has_idea = non_power
					#has_equipment = { apc_hull < 1 }
					num_of_military_factories < 12
				}
			}
		}

		target_width = 44
		width_weight = 1
		column_swap_factor = 0.5

		target_template = {
			weight = 0.9
			match_value = 9000
			regiments = {
				Mech_Marine_Bat = 6
				armor_Bat = 2
				SP_Arty_Bat = 2
			}
			support = {
				Mech_Recce_Comp = 1
				H_Engi_Comp = 1
				SP_AA_Battery = 1
				combat_service_support_company = 1
			}
		}

		allowed_types = {
			Mech_Marine_Bat
			armor_Bat
			SP_Arty_Bat
			SP_AA_Bat
			armor_Recce_Comp
			Mech_Recce_Comp
			H_Engi_Comp
			SP_AA_Battery
			helicopter_combat_service_support
			combat_service_support_company
		}
	}
	armored_marines_division = {
		upgrade_prio = {
			factor = 1
			modifier = {
				factor = 0
				num_of_military_factories < 15
			}
			modifier = {
				factor = 0
				num_of_naval_factories < 1
			}
		}
		production_prio = {
			factor = 1
			modifier = {
				factor = 0
				OR = {
					num_of_military_factories < 15
					#has_equipment = { ifv_hull < 1 }
				}
			}
			modifier = {
				factor = 0
				num_of_naval_factories < 1
			}
			modifier = {
				factor = 10
				OR = {
					tag = USA
					tag = CHI
					tag = SOV
					tag = RAJ
					tag = GER
				}
			}
			modifier = {
				factor = 5
				OR = {
					tag = ITA
					tag = SPR
					tag = POR
					tag = ENG
					tag = FRA
					tag = TUR
					tag = EGY
					tag = BRA
				}
			}
			modifier = { #Use IFVs if you have less than 4k
				factor = 2
				has_equipment = { apc_hull < 4000 }
			}
			modifier = { #Use IFVs if you have a surplus
				factor = 5
				has_equipment = { ifv_hull > 4000 }
			}
			modifier = { #50% more likely
				factor = 1.50
				OR = {
					has_idea = great_power
					has_idea = large_power
				}
			}
			modifier = { #
				factor = 5
				OR = {
					is_major = yes
					has_idea = superpower
				}
			}
		}

		target_width = 44
		width_weight = 1
		column_swap_factor = 0.5

		target_template = {
			weight = 0.9
			match_value = 8000.0

			regiments = {
				Arm_Marine_Bat = 6
				armor_Bat = 2
				SP_Arty_Bat = 2
			}
			support = {
				Arm_Recce_Comp = 1
				H_Engi_Comp = 1
				SP_AA_Battery = 1
				combat_service_support_company = 1
			}
		}

		allowed_types = {
			Arm_Marine_Bat
			Arm_Recce_Comp
			H_Engi_Comp
			Arty_Battery
			combat_service_support_company
			armor_Bat
			SP_Arty_Bat
			SP_AA_Battery
		}
	}
}

#Special Forces
Special_Forces_generic = {
	roles = { Special_Forces }
	upgrade_prio = {
		factor = 1.2
	}

	match_to_count = 0.6

	Special_Forces_generic = {
		upgrade_prio = {
			factor = 1
			modifier = {
				factor = 0
				OR = {
					num_of_military_factories < 5
					num_of_military_factories > 10
				}
			}
		}
		production_prio = {
			factor = 2
			modifier = {
				factor = 0
				OR = {
					num_of_military_factories < 5
					num_of_military_factories > 10
				}
			}
		}

		reinforce_prio = 2

		target_width = 30
		width_weight = 1
		column_swap_factor = 0.5

		target_template = {
			weight = 0.9
			match_value = 9000.0

			regiments = {
				Special_Forces = 6
				Arty_Bat = 3
			}
			support = {
				L_Recce_Comp = 1
				L_Engi_Comp = 1
				combat_service_support_company = 1
			}
		}

		allowed_types = {
			Special_Forces
			Arty_Bat
			L_Engi_Comp
			L_Recce_Comp
			Arty_Battery
			combat_service_support_company
		}
	}

	special_forces_division = {
		upgrade_prio = {
			factor = 4
			modifier = {
				factor = 0
				OR = {
					has_idea = minor_power
					has_idea = non_power
					num_of_military_factories < 10
				}
			}
		}
		production_prio = {
			factor = 4
			modifier = {
				factor = 0
				OR = {
					has_idea = minor_power
					has_idea = non_power
					num_of_military_factories < 10
				}
			}
		}

		reinforce_prio = 2

		target_width = 44
		width_weight = 1
		column_swap_factor = 0.5

		target_template = {
			weight = 60
			match_value = 9000.0
			regiments = {
				Special_Forces = 8
				SP_Arty_Bat = 3
				SP_AA_Bat = 1
			}
			support = {
				Arm_Recce_Comp = 1
				combat_service_support_company = 1
				H_Engi_Comp = 1
				armor_Comp = 1
				SP_Arty_Battery = 1
			}
		}

		allowed_types = {
			Special_Forces
			SP_Arty_Bat
			SP_AA_Bat
			Arm_Recce_Comp
			helicopter_combat_service_support
			H_Engi_Comp
			armor_Comp
			SP_Arty_Battery
			combat_service_support_company
		}
	}
}

#Speed Helicopter Paratroopers
Air_heli_generic = {
	roles = { Air_helicopters }
	upgrade_prio = {
		factor = 1
	}

	match_to_count = 0.6

	Arm_Air_assault_brigade = {
		upgrade_prio = {
			factor = 1
			modifier = {
				factor = 0
				num_of_military_factories < 21
			}
		}
		production_prio = {
			factor = 0.1
			modifier = {
				factor = 0
				num_of_military_factories < 21
			}
		}

		target_width = 29
		width_weight = 1
		column_swap_factor = 0.5

		target_template = {
			weight = 0.9
			match_value = 9000.0

			regiments = {
				Arm_Air_assault_Bat = 6
				attack_helo_bat = 2
			}
			support = {
				helicopter_combat_service_support = 1
			}
		}

		allowed_types = {
			Arm_Air_assault_Bat
			L_Air_assault_Bat
			attack_helo_bat
			helicopter_combat_service_support
		}
	}

	# Arm_Air_assault_generic = {
	# 	upgrade_prio = {
	# 		factor = 1
	# 		modifier = {
	# 			factor = 0
	# 			num_of_military_factories < 19
	# 		}
	# 	}
	# 	production_prio = {
	# 		factor = 1
	# 		modifier = {
	# 			factor = 0
	# 			num_of_military_factories < 19
	# 		}
	# 	}

	# 	target_width = 40
	# 	width_weight = 1
	# 	column_swap_factor = 0.5

	# 	target_template = {
	# 		weight = 0.9
	# 		match_value = 9000.0

	# 		regiments = {
	# 			Arm_Air_assault_Bat = 9
	# 		}
	# 		support = {
	# 			H_Engi_Comp = 1
	# 			helicopter_combat_service_support = 1
	# 			SP_AA_Battery = 1
	# 		}
	# 	}

	# 	allowed_types = {
	# 		Arm_Air_assault_Bat
	# 		Arm_Recce_Comp
	# 		H_Engi_Comp
	# 		combat_service_support_company
	# 		SP_AA_Battery
	# 		Arty_Bat
	# 		armor_Comp
	# 	}
	# }
}

#Mech Paratroopers
Air_mech_generic = {
	roles = { Air_mech }
	upgrade_prio = {
		factor = 0.6
	}
	match_to_count = 0.6

	Air_Mech_generic = {
		upgrade_prio = {
			factor = 1
			modifier = {
				factor = 0
				OR = {
					num_of_military_factories > 15
					num_of_military_factories < 10
				}
			}
		}
		production_prio = {
			factor = 2
			modifier = { #Use Regular APCs if you have over 2k
				factor = 5
				has_equipment = { apc_hull > 2000 }
			}
			modifier = {
				factor = 0
				OR = {
					num_of_military_factories > 15
					num_of_military_factories < 10
				}
			}
		}

		target_width = 36
		width_weight = 1
		column_swap_factor = 0.5

		target_template = {
			weight = 0.9
			match_value = 9000.0

			regiments = {
				Mech_Air_Inf_Bat = 6
				Arty_Bat = 2
			}
			support = {
				H_Engi_Comp = 1
				SP_AA_battery = 1
				helicopter_combat_service_support = 1
			}
		}

		allowed_types = {
			Mech_Air_Inf_Bat
			SP_AA_Bat
			Arty_Bat
			armor_Recce_Comp
			H_Engi_Comp
			Arty_Battery
			combat_service_support_company
			helicopter_combat_service_support
			SP_AA_battery
		}
	}

	Air_Mech_division = {
		upgrade_prio = {
			factor = 1
			modifier = {
				factor = 0
				OR = {
					has_idea = minor_power
					has_idea = non_power
					num_of_military_factories < 15
					num_of_military_factories > 20
				}
			}
		}
		production_prio = {
			factor = 1
			modifier = {
				factor = 0
				OR = {
					has_idea = minor_power
					has_idea = non_power
					num_of_military_factories > 20
					num_of_military_factories < 15
				}
			}
		}

		target_width = 44
		width_weight = 1
		column_swap_factor = 0.5

		target_template = {
			weight = 0.9
			match_value = 9000.00
			regiments = {
				Arty_Bat = 4
				Arm_Air_Inf_Bat = 6
			}
			support = {
				armor_Recce_Comp = 1
				H_Engi_Comp = 1
				SP_AA_Battery = 1
				helicopter_combat_service_support = 1
				armor_Comp = 1
			}
		}

		allowed_types = {
			Mech_Air_Inf_Bat
			Arm_Air_Inf_Bat
			SP_AA_Bat
			Arty_Bat
			Arm_Air_assault_Bat
			armor_Recce_Comp
			H_Engi_Comp
			Arty_Battery
			helicopter_combat_service_support
			armor_Comp
			SP_AA_Battery
		}
	}
}

#this is related to AI Motorized Brigade
infantry_generic = {
	roles = { infantry }
	upgrade_prio = {
		factor = 0.7
	}
	match_to_count = 0.6
	infantry_generic = {
		upgrade_prio = {
			factor = 1
			modifier = {
				factor = 0
				num_of_military_factories > 7
			}
		}
		production_prio = {
			factor = 1
			modifier = {
				factor = 0
				num_of_military_factories > 7
			}
		}

		target_width = 30
		width_weight = 2
		column_swap_factor = 0.5

		target_template = {
			weight = 0.9
			match_value = 9000.0

			regiments = {
				Mot_Inf_Bat = 6
			}
			support = {
				Mot_Recce_Comp = 1
				H_Engi_Comp = 1
				combat_service_support_company = 1
				Arty_Battery = 1
			}
		}

		allowed_types = {
			Mot_Inf_Bat
			Arty_Bat
			Mot_Recce_Comp
			H_Engi_Comp
			combat_service_support_company
			Arty_Battery
		}
	}

	infantry_division = {
		upgrade_prio = {
			factor = 1.5
			modifier = {
				factor = 0
				OR = {
					num_of_military_factories < 8
					num_of_military_factories > 15
				}
			}
		}
		production_prio = {
			factor = 1.5
			modifier = {
				factor = 0
				OR = {
					num_of_military_factories < 8
					num_of_military_factories > 15
				}
			}
		}

		target_width = 45
		width_weight = 1
		column_swap_factor = 0.5

		target_template = {
			weight = 0.9
			match_value = 10000.0

			regiments = {
				Mot_Inf_Bat = 6
				Arty_Bat = 4
			}
			support = {
				Mot_Recce_Comp = 1
				H_Engi_Comp = 1
				armor_Comp = 1
				combat_service_support_company = 1
				SP_AA_Battery = 1
			}
		}

		allowed_types = {
			Mot_Inf_Bat
			H_Engi_Comp
			Mot_Recce_Comp
			Arty_Battery
			Arty_Bat
			armor_Comp
			combat_service_support_company
			SP_AA_Battery
		}
	}
}

#Mechanized Generic - Related to APC
APC_generic = {
	roles = { apc_mechanized }
	upgrade_prio = {
		factor = 1
	}

	match_to_count = 0.7

	mechanized_generic = {
		upgrade_prio = {
			factor = 1
			modifier = { #Ignore if you don't have the APCS
				factor = 0
				num_of_military_factories > 15
			}
		}
		production_prio = {
			factor = 1 #Base
			modifier = { #Use Regular APCs if you have over 2k
				factor = 2
				has_equipment = { apc_hull > 600 }
			}
			modifier = { #Use Regular APCs if you have less than 4k IFVs
				factor = 2
				has_equipment = { ifv_hull < 500 }
			}
			modifier = { #Half as likely
				factor = 0.50
				OR = {
					has_idea = great_power
					has_idea = large_power
				}
			}
			modifier = { #Ignore if you don't have the APCS
				factor = 0
				num_of_military_factories > 15
			}
		}

		target_width = 36
		width_weight = 1
		column_swap_factor = 0.5

		target_template = {
			weight = 0.9
			match_value = 5000.0

			regiments = {
				Mech_Inf_Bat = 4
				armor_Bat = 2
				SP_Arty_Bat = 2
			}
			support = {
				H_Engi_Comp = 1
				Mech_Recce_Comp = 1
				SP_AA_Battery = 1
				combat_service_support_company = 1
			}
		}

		allowed_types = {
			Mech_Inf_Bat
			armor_Bat
			SP_Arty_Bat
			SP_AA_Bat
			H_Engi_Comp
			SP_AA_Battery
			Mech_Recce_Comp
			combat_service_support_company
		}
	}

	mechanized_divisions = {
		upgrade_prio = {
			factor = 1
			modifier = {
				factor = 0
				OR = {
					has_idea = minor_power
					has_idea = non_power
					num_of_military_factories < 15
				}
			}
		}
		production_prio = {
			factor = 1
			modifier = { #Use Regular APCs if you have over 2k
				factor = 2
				has_equipment = { apc_hull > 2000 }
			}
			modifier = { #Use Regular APCs if you have less than 4k IFVs
				factor = 2
				has_equipment = { ifv_hull < 2000 }
			}
			modifier = { #If Major Ignore Brigades
				factor = 2
				OR = {
					is_major = yes
					has_idea = superpower
				}
			}
			modifier = {
				factor = 0
				OR = {
					has_idea = minor_power
					has_idea = non_power
					num_of_military_factories < 15
				}
			}
		}

		target_width = 47
		width_weight = 1
		column_swap_factor = 0.5

		target_template = {
			weight = 0.9 #Should get the AI to build units since its a bigger weight
			match_value = 10000.0

			regiments = {
				Mech_Inf_Bat = 6
				armor_Bat = 2
				SP_Arty_Bat = 3
			}
			support = {
				Mech_Recce_Comp = 1
				H_Engi_Comp = 1
				combat_service_support_company = 1
				SP_AA_Battery = 1
			}
		}

		allowed_types = {
			Mech_Inf_Bat
			SP_AA_Bat
			SP_Arty_Bat
			armor_Comp
			armor_Bat
			Mech_Recce_Comp
			H_Engi_Comp
			combat_service_support_company
			L_Recce_Comp
			SP_AA_Battery
		}
	}
}

#Mechanized Generic - Related to IFV
IFV_generic = {
	roles = { ifv_mechanized }
	upgrade_prio = {
		factor = 1
	}

	match_to_count = 0.7

	ifv_infantry_generic = {
		upgrade_prio = {
			factor = 1
			modifier = {
				factor = 0
				num_of_military_factories > 15
			}
		}
		production_prio = {
			factor = 1
			modifier = { #Use IFVs if you have less than 4k
				factor = 2
				has_equipment = { apc_hull < 1000 }
			}
			modifier = { #Use IFVs if you have a surplus
				factor = 2
				has_equipment = { ifv_hull > 1000 }
			}
			modifier = { #50% more likely
				factor = 1.50
				OR = {
					has_idea = great_power
					has_idea = large_power
				}
			}
			modifier = {
				factor = 2
				OR = {
					is_major = yes
					has_idea = superpower
				}
			}
			modifier = {
				factor = 0
				num_of_military_factories > 15
			}
		}

		target_width = 36
		width_weight = 1
		column_swap_factor = 0.5

		target_template = {
			weight = 0.9
			match_value = 6000.0

			regiments = {
				Arm_Inf_Bat = 4
				armor_Bat = 2
				SP_Arty_Bat = 2
			}
			support = {
				H_Engi_Comp = 1
				Arm_Recce_Comp = 1
				SP_AA_Battery = 1
				combat_service_support_company = 1
			}
		}

		allowed_types = {
			Arm_Inf_Bat
			armor_Bat
			SP_Arty_Bat
			SP_AA_Bat
			H_Engi_Comp
			Arm_Recce_Comp
			combat_service_support_company
			SP_AA_Battery
		}
	}

	ifv_infantry_divisions = {
		upgrade_prio = {
			factor = 1
			modifier = {
				factor = 5
				OR = {
					original_tag = CHI
					original_tag = USA
				}
			}
			modifier = {
				factor = 7
				original_tag = SOV
			}
			modifier = {
				factor = 0
				OR = {
					has_idea = minor_power
					has_idea = non_power
					num_of_military_factories < 15
				}
			}
		}
		production_prio = {
			factor = 1
			modifier = {
				factor = 10
				OR = {
					tag = USA
					tag = CHI
					tag = SOV
					tag = RAJ
					tag = GER
				}
			}
			modifier = {
				factor = 5
				OR = {
					tag = ITA
					tag = SPR
					tag = POR
					tag = ENG
					tag = FRA
					tag = TUR
					tag = EGY
					tag = BRA
				}
			}
			modifier = { #Use IFVs if you have less than 4k
				factor = 2
				has_equipment = { apc_hull < 2000 }
			}
			modifier = { #Use IFVs if you have a surplus
				factor = 2
				has_equipment = { ifv_hull > 2000 }
			}
			modifier = { #If Major Ignore Brigades
				factor = 2.5
				OR = {
					is_major = yes
					has_idea = superpower
				}
			}
			modifier = {
				factor = 0
				OR = {
					has_idea = minor_power
					has_idea = non_power
					num_of_military_factories < 15
				}
			}
		}

		target_width = 47
		width_weight = 1
		column_swap_factor = 0.5

		target_template = {
			weight = 0.9
			match_value = 12000.0

			regiments = {
				Arm_Inf_Bat = 6
				armor_Bat = 2
				SP_Arty_Bat = 3
			}
			support = {
				Arm_Recce_Comp = 1
				H_Engi_Comp = 1
				combat_service_support_company = 1
				SP_AA_Battery = 1
			}
		}

		allowed_types = {
			Arm_Inf_Bat
			armor_Bat
			SP_AA_Bat
			SP_Arty_Bat
			Arm_Recce_Comp
			H_Engi_Comp
			combat_service_support_company
			L_Recce_Comp
			SP_AA_Battery
		}
	}
}

#Armored Generic
armor_generic = {
	# AI will try to have one template per role
	roles = { armor }

	# MTTH block that decides the 'importance' of the role template compared to other role templates for spending experience on improving
	upgrade_prio = { factor = 1.2 }

	# Decides how much the a division template should fulfill one of the templates within the role template in order to count as one
	match_to_count = 0.5

	armor_generic = {
		# MTTH block that determines how likely the AI is to upgrade
		upgrade_prio = {
			factor = 1
			modifier = {
				factor = 0
				OR = {
					tag = USA
					tag = CHI
					tag = SOV
					num_of_military_factories > 20
					num_of_military_factories < 12
				}
			}
		}
		# Determines the Production importance similar to above
		production_prio = {
			factor = 1
			modifier = {
				factor = 0
				OR = {
					tag = USA
					tag = CHI
					tag = SOV
					num_of_military_factories > 20
					num_of_military_factories < 12
				}
			}
		}

		# target_width is the targeted combat width for this design
		target_width = 39
		# width_weight determines how much the AI is willing to deviate from the target width
		width_weight = 1
		# assigns a likelihood for the AI to swap entire columns to meet targeted designs
		column_swap_factor = 0.5

		# The actual template is designed here
		target_template = {
			# How much the AI should aim to have this template
			weight = 0.9
			# value that decides its worth to the AI
			match_value = 9000.0

			# I don't need to explain this
			regiments = {
				armor_Bat = 4
				Arm_Inf_Bat = 3
				SP_AA_Battery = 1
				SP_Arty_Bat = 2
			}
			support = {
				H_Engi_Comp = 1
				combat_service_support_company = 1
				armor_Recce_Comp = 1
			}
		}

		# Only THESE unit types in this role
		allowed_types = {
			armor_Bat
			Arm_Inf_Bat
			SP_AA_Battery
			H_Engi_Comp
			combat_service_support_company
			armor_Recce_Comp
			SP_Arty_Bat
		}
	}

	armor_division = {
		upgrade_prio = {
			factor = 1
			modifier = {
				factor = 5
				OR = {
					tag = USA
					tag = CHI
					tag = SOV
				}
			}
			modifier = {
				factor = 0
				num_of_military_factories < 20
			}
		}
		production_prio = {
			factor = 2
			modifier = {
				factor = 1.5
				OR = {
					#BRICS
					#tag = SOV
					tag = CHI
					tag = BRA
					tag = SAF
					tag = RAJ
					#G7
					tag = GER
					tag = FRA
					tag = ITA
					tag = CAN
					tag = USA
					tag = ITA
					tag = JAP
				}
			}
			modifier = {
				factor = 4
				#Russian Tanks - it's really tanks army
				tag = SOV
			}
			modifier = {
				factor = 0
				num_of_military_factories < 20
			}
		}

		target_width = 62
		width_weight = 1
		column_swap_factor = 0.5

		target_template = {
			weight = 0.9
			match_value = 8000.0

			regiments = {
				armor_Bat = 6
				Arm_Inf_Bat = 6
				SP_Arty_Bat = 2
				SP_AA_Bat = 1
			}
			support = {
				Arm_Recce_Comp = 1
				H_Engi_Comp = 1
				combat_service_support_company = 1
				SP_AA_Battery = 1
			}
		}

		allowed_types = {
			armor_Bat
			Arm_Inf_Bat
			SP_Arty_Bat
			SP_AA_Bat
			Arm_Recce_Comp
			H_Engi_Comp
			combat_service_support_company
			SP_AA_Battery
			SP_Arty_Bat
		}
	}
}