scripted_gui = {

	trade_tab_menu = {
		context_type = player_context
		window_name = "trade_tab_menu"
		dirty = refresh_wmd_menu

		visible = {
			always = no
		 }

		triggers = {

			#WMD_Key_Left_0_visible = {
			#	check_variable = {
			#		left_key_turned = 0
			#	}
			#}
			#defconbutton_raise_click_enabled = {
			#
			#}
		}

		effects = {
			#defconbutton_raise_click = {
			#}
		}
	}
	Chroium_Buy_Prompt = {

		context_type = player_context
		window_name = "PURCHASE_CHROMIUM"

		visible = {
            check_variable = { chromium_prompt = 1 }
		}
		properties = {
			country_flag_for_trade_screen = {
				image = "[this_trade_country.GetFlag]"
			}
			root_flag_for_trade_screen = {
				image = "[ROOT.GetFlag]"
			}
		}
		triggers = {
			resources_icon_oil_visible = {
				check_variable = { oil_trade = 1 }
			}
			resources_icon_aluminum_visible = {
				check_variable = { aluminum_trade = 1 }
			}
			resources_icon_food_visible = {
				check_variable = { food_trade = 1 }
			}
			resources_icon_rare_earth_visible = {
				check_variable = { rare_earth_trade = 1 }
			}
			resources_icon_steel_visible = {
				check_variable = { steel_trade = 1 }
			}
			resources_icon_nuclear_visible = {
				check_variable = { nuclear_trade = 1 }
			}

			decrease_chromium_click_enabled = {
				NOT = {
					check_variable = {
						ROOT.trade_automation = 2
					}
				}
				NOT = {
					check_variable = {
						purchase_amount = 0
					}
				}
			}
			increase_chromium_click_enabled = {
				NOT = {
					check_variable = {
						ROOT.trade_automation = 2
					}
				}
				var:currentPurchaser = {
					NOT = {
						check_variable = {
							ROOT.purchase_amount > ROOT.currentAvailableChromiumExportPrompt
						}
					}
					NOT = {
						check_variable = {
							ROOT.purchase_amount = ROOT.currentAvailableChromiumExportPrompt
						}
					}
				}
				check_variable = {
					trade_infrastructure_total_available > purchase_amount
				}
			}
			confirm_chromium_purchase_click_enabled = {
				NOT = {
					check_variable = {
						ROOT.trade_automation = 2
					}
				}
				OR = {
					check_variable = {
						trade_infrastructure_total_available > purchase_amount
					}
					check_variable = {
						trade_infrastructure_total_available = purchase_amount
					}
				}
			}
		}
        effects = {
            increase_chromium_click = {
				add_to_variable = {
					purchase_amount = 1
				}
				set_variable = {
					purchase_desc = purchase_amount
				}
				multiply_variable = {
					purchase_desc = pricePerUnit
				}
            }
            decrease_chromium_click = {
				add_to_variable = {
					purchase_amount = -1
				}
				set_variable = {
					purchase_desc = purchase_amount
				}
				multiply_variable = {
					purchase_desc = pricePerUnit
				}
            }
			confirm_chromium_purchase_click = {
				set_variable = {
					chromium_prompt = 0
				}
				if = {
					limit = {
						check_variable = { nuclear_trade = 1 }
					}
					buy_nuclear_material = yes
				}
				if = {
					limit = {
						check_variable = { food_trade = 1 }
					}
					buy_food = yes
				}
				if = {
					limit = {
						check_variable = { oil_trade = 1 }
					}
					buy_oil = yes
				}
				if = {
					limit = {
						check_variable = { steel_trade = 1 }
					}
					buy_steel = yes
				}
				if = {
					limit = {
						check_variable = { aluminum_trade = 1 }
					}
					buy_aluminium = yes
				}
				if = {
					limit = {
						check_variable = { rare_earth_trade = 1 }
					}
					buy_rareEarth = yes
				}

				set_variable = {
					purchase_desc = 0
				}
				set_variable = {
					pricePerUnit = 0
				}
				set_variable = {
					purchase_amount = 0
				}
			}
			cancel_button_click = {
				set_variable = {
					chromium_prompt = 0
				}
				set_variable = {
					purchase_desc = 0
				}
				set_variable = {
					pricePerUnit = 0
				}
				set_variable = {
					purchase_amount = 0
				}
			}
        }
    }
	chromium_exporter_list = {
		context_type = player_context
		window_name = "chromium_export_list"
		parent_window_name = "countrytradeview"

		visible = {
			#always = no
		}

		triggers = {
			cancel_oil_imports_click_enabled = {
				NOT = {
					check_variable = {
						ROOT.trade_automation = 2
					}
				}
				NOT = { check_variable = { oilImports = 0 } }
			}
			cancel_aluminum_imports_click_enabled = {
				NOT = {
					check_variable = {
						ROOT.trade_automation = 2
					}
				}
				NOT = { check_variable = { aluminiumImports = 0 } }
			}
			cancel_food_imports_click_enabled = {
				NOT = {
					check_variable = {
						ROOT.trade_automation = 2
					}
				}
				NOT = { check_variable = { foodImports = 0 } }
			}
			cancel_rare_earth_imports_click_enabled = {
				NOT = {
					check_variable = {
						ROOT.trade_automation = 2
					}
				}
				NOT = { check_variable = { rareEarthImports = 0 } }
			}
			cancel_steel_imports_click_enabled = {
				NOT = {
					check_variable = {
						ROOT.trade_automation = 2
					}
				}
				NOT = { check_variable = { steelImports = 0 } }
			}
			cancel_nuclear_imports_click_enabled = {
				NOT = {
					check_variable = {
						ROOT.trade_automation = 2
					}
				}
				NOT = { check_variable = { nuclearImports = 0 } }
			}
			cancel_electricity_imports_click_enabled = {
				NOT = {
					check_variable = {
						ROOT.trade_automation = 2
					}
				}
				check_variable = { electricImports > 0 }
			}

			nuclear_button_sorted_visible = {
				check_variable = { nuclear_trade = 1 }
			}
			nuclear_button_sort_visible = {
				check_variable = { nuclear_trade = 0 }
			}
			steel_button_sorted_visible = {
				check_variable = { steel_trade = 1 }
			}
			steel_button_sort_visible = {
				check_variable = { steel_trade = 0 }
			}
			rare_earth_button_sorted_visible = {
				check_variable = { rare_earth_trade = 1 }
			}
			rare_earth_button_sort_visible = {
				check_variable = { rare_earth_trade = 0 }
			}
			food_button_sorted_visible = {
				check_variable = { food_trade = 1 }
			}
			food_button_sort_visible = {
				check_variable = { food_trade = 0 }
			}
			aluminum_button_sorted_visible = {
				check_variable = { aluminum_trade = 1 }
			}
			aluminum_button_sort_visible = {
				check_variable = { aluminum_trade = 0 }
			}
			oil_button_sorted_visible = {
				check_variable = { oil_trade = 1 }
			}
			oil_button_sort_visible = {
				check_variable = { oil_trade = 0 }
			}
			nuclear_button_sorted_enabled = {
				NOT = {
					check_variable = {
						ROOT.trade_automation = 2
					}
				}
			}
			nuclear_button_sort_enabled = {
				NOT = {
					check_variable = {
						ROOT.trade_automation = 2
					}
				}
			}
			steel_button_sorted_enabled = {
				NOT = {
					check_variable = {
						ROOT.trade_automation = 2
					}
				}
			}
			steel_button_sort_enabled = {
				NOT = {
					check_variable = {
						ROOT.trade_automation = 2
					}
				}
			}
			rare_earth_button_sorted_enabled = {
				NOT = {
					check_variable = {
						ROOT.trade_automation = 2
					}
				}
			}
			rare_earth_button_sort_enabled = {
				NOT = {
					check_variable = {
						ROOT.trade_automation = 2
					}
				}
			}
			food_button_sorted_enabled = {
				NOT = {
					check_variable = {
						ROOT.trade_automation = 2
					}
				}
			}
			food_button_sort_enabled = {
				NOT = {
					check_variable = {
						ROOT.trade_automation = 2
					}
				}
			}
			aluminum_button_sorted_enabled = {
				NOT = {
					check_variable = {
						ROOT.trade_automation = 2
					}
				}
			}
			aluminum_button_sort_enabled = {
				NOT = {
					check_variable = {
						ROOT.trade_automation = 2
					}
				}
			}
			oil_button_sorted_enabled = {
				NOT = {
					check_variable = {
						ROOT.trade_automation = 2
					}
				}
			}
			oil_button_sort_enabled = {
				NOT = {
					check_variable = {
						ROOT.trade_automation = 2
					}
				}
			}
		}
		properties = {
			country_flag_for_trade = {
				image = "[THIS.GetFlag]"
			}
			trade_automation_button = {
 				frame = trade_automation
			}
		}
		dynamic_lists = {
			food_trade_listing_grid = {
				array = foodExporters
				change_scope = yes
				entry_container = food_export_listing_entry
			}
			steel_trade_listing_grid = {
				array = steelExporters
				change_scope = yes
				entry_container = steel_export_listing_entry
			}
			aluminum_trade_listing_grid = {
				array = aluminiumExporters
				change_scope = yes
				entry_container = aluminum_export_listing_entry
			}
			rare_earth_trade_listing_grid = {
				array = rareEarthExporters
				change_scope = yes
				entry_container = rare_earth_export_listing_entry
			}
			oil_trade_listing_grid = {
				array = oilExporters
				change_scope = yes
				entry_container = oil_export_listing_entry
			}
			chromium_trade_listing_grid = {
				array = chromiumExporters
				change_scope = yes
				entry_container = chromium_export_listing_entry
			}
		}
		effects = {
			trade_automation_button_click = {
				if = {
					limit = {
						check_variable = {
							trade_automation = 2
						}
					}
					set_variable = {
						trade_automation = 1
					}
				}
				else = {
					set_variable = {
						trade_automation = 2
					}
					reset_all_orders = yes
				}
			}
			cancel_oil_imports_click = {
				add_to_variable = {
					trade_infrastructure_total_available = oilImports
				}
				subtract_from_variable = {
					trade_infrastructure_total_used = oilImports
				}
				set_variable = { oilImports = 0 }
				set_variable = { modifiedOilImports = 0}
				every_country = {
					add_to_variable = {
						currentAvailableOilExport = oilExportTargetAmount^ROOT
					}
					set_variable = {
						oilExportTarget^ROOT = 0
					}
					set_variable = {
						oilExportTargetAmount^ROOT = 0
					}
					set_variable = {
						oilExportTargetMonthly^ROOT = 0
					}
					set_variable = {
						ROOT.oilImportTargetMonthly^THIS = 0
					}
					set_variable = {
						ROOT.oilImportTarget^THIS = 0
					}
					set_variable = {
						ROOT.oilImportTargetAmount^THIS = 0
					}
				}
				force_update_dynamic_modifier = yes
			}
			cancel_aluminum_imports_click = {
				add_to_variable = {
					trade_infrastructure_total_available = aluminiumImports
				}
				subtract_from_variable = {
					trade_infrastructure_total_used = aluminiumImports
				}
				set_variable = { aluminiumImports = 0 }
				set_variable = { modifiedAluminiumImports = 0}
				every_country = {
					add_to_variable = {
						currentAvailablealuminiumExport = aluminiumExportTargetAmount^ROOT
					}
					set_variable = {
						aluminiumExportTarget^ROOT = 0
					}
					set_variable = {
						aluminiumExportTargetAmount^ROOT = 0
					}
					set_variable = {
						aluminiumExportTargetMonthly^ROOT = 0
					}
					set_variable = {
						ROOT.aluminiumImportTargetMonthly^THIS = 0
					}
					set_variable = {
						ROOT.aluminiumImportTarget^THIS = 0
					}
					set_variable = {
						ROOT.aluminiumImportTargetAmount^THIS = 0
					}
				}
				force_update_dynamic_modifier = yes
			}
			cancel_food_imports_click = {
				add_to_variable = {
					trade_infrastructure_total_available = foodImports
				}
				subtract_from_variable = {
					trade_infrastructure_total_used = foodImports
				}
				set_variable = { foodImports = 0 }
				set_variable = {modifiedFoodImports = 0}
				every_country = {
					add_to_variable = {
						currentAvailablefoodExport = foodExportTargetAmount^ROOT
					}
					set_variable = {
						foodExportTarget^ROOT = 0
					}
					set_variable = {
						foodExportTargetAmount^ROOT = 0
					}
					set_variable = {
						foodExportTargetMonthly^ROOT = 0
					}
					set_variable = {
						ROOT.foodImportTargetMonthly^THIS = 0
					}
					set_variable = {
						ROOT.foodImportTarget^THIS = 0
					}
					set_variable = {
						ROOT.foodImportTargetAmount^THIS = 0
					}
				}
				force_update_dynamic_modifier = yes
			}
			cancel_rare_earth_imports_click = {
				add_to_variable = {
					trade_infrastructure_total_available = rareEarthImports
				}
				subtract_from_variable = {
					trade_infrastructure_total_used = rareEarthImports
				}
				set_variable = { rareEarthImports = 0 }
				set_variable = { modifiedRareEarthImports = 0 }
				every_country = {
					add_to_variable = {
						currentAvailablerareEarthExport = rareEarthExportTargetAmount^ROOT
					}
					set_variable = {
						rareEarthExportTarget^ROOT = 0
					}
					set_variable = {
						rareEarthExportTargetAmount^ROOT = 0
					}
					set_variable = {
						rareEarthExportTargetMonthly^ROOT = 0
					}
					set_variable = {
						ROOT.rareEarthImportTargetMonthly^THIS = 0
					}
					set_variable = {
						ROOT.rareEarthImportTarget^THIS = 0
					}
					set_variable = {
						ROOT.rareEarthImportTargetAmount^THIS = 0
					}
				}
				force_update_dynamic_modifier = yes
			}
			cancel_steel_imports_click = {
				add_to_variable = {
					trade_infrastructure_total_available = steelImports
				}
				subtract_from_variable = {
					trade_infrastructure_total_used = steelImports
				}
				set_variable = { steelImports = 0 }
				set_variable = { modifiedSteelImports = 0}
				every_country = {
					add_to_variable = {
						currentAvailablesteelExport = steelExportTargetAmount^ROOT
					}
					set_variable = {
						steelExportTarget^ROOT = 0
					}
					set_variable = {
						steelExportTargetAmount^ROOT = 0
					}
					set_variable = {
						steelExportTargetMonthly^ROOT = 0
					}
					set_variable = {
						ROOT.steelImportTargetMonthly^THIS = 0
					}
					set_variable = {
						ROOT.steelImportTarget^THIS = 0
					}
					set_variable = {
						ROOT.steelImportTargetAmount^THIS = 0
					}
				}
				force_update_dynamic_modifier = yes
			}
			cancel_nuclear_imports_click = {
				add_to_variable = {
					trade_infrastructure_total_available = nuclearImports
				}
				subtract_from_variable = {
					trade_infrastructure_total_used = nuclearImports
				}
				set_variable = { nuclearImports = 0 }
				set_variable = { modifiedNuclearImports = 0}
				every_country = {
					add_to_variable = {
						currentAvailableChromiumExport = chromiumExportTargetAmount^ROOT
					}
					set_variable = {
						chromiumExportTarget^ROOT = 0
					}
					set_variable = {
						chromiumExportTargetAmount^ROOT = 0
					}
					set_variable = {
						chromiumExportTargetMonthly^ROOT = 0
					}
					set_variable = {
						ROOT.chromiumImportTargetMonthly^THIS = 0
					}
					set_variable = {
						ROOT.chromiumImportTarget^THIS = 0
					}
					set_variable = {
						ROOT.chromiumImportTargetAmount^THIS = 0
					}
				}
				force_update_dynamic_modifier = yes
			}
			cancel_electricity_imports_click = {
				set_variable = { electricImports = 0 }
				force_update_dynamic_modifier = yes
			}
			##############
			sort_export_click = {	#Available
				sort_resource_number_chromium = yes
				sort_resource_number_steel = yes
				sort_resource_number_rareEarth = yes
				sort_resource_number_oil = yes
				sort_resource_number_aluminium = yes
				sort_resource_number_food = yes
			}
			sort_request_click = {	#Exported
				#sort_bought_number_chromium = yes
				#sort_bought_number_steel = yes
				#sort_bought_number_rareEarth = yes
				#sort_bought_number_oil = yes
				#sort_bought_number_aluminium = yes
				sort_bought_number_food = yes
			}
			sort_convoys_click = {	#Financial
				sort_price_number_chromium = yes
				sort_price_number_steel = yes
				sort_price_number_rareEarth = yes
				sort_price_number_oil = yes
				sort_price_number_aluminium = yes
				sort_price_number_food = yes
			}
			nuclear_button_sorted_click = {
				set_variable = { nuclear_trade = 0 }
				clear_array = oilExporters
				clear_array = oilExporterInfo
				clear_array = aluminiumExporters
				clear_array = aluminiumExporterInfo
				clear_array = foodExporters
				clear_array = foodExporterInfo
				clear_array = rareEarthExporterInfo
				clear_array = rareEarthExporters
				clear_array = steelExporters
				clear_array = steelExporterInfo
				clear_array = chromiumExporters
				clear_array = chromiumExporterInfo
			}
			nuclear_button_sort_click = {
				set_variable = { steel_trade = 0 }
				set_variable = { nuclear_trade = 0 }
				set_variable = { rare_earth_trade = 0 }
				set_variable = { food_trade = 0 }
				set_variable = { aluminum_trade = 0 }
				set_variable = { oil_trade = 0 }
				set_variable = { nuclear_trade = 1 }

				clear_array = oilExporters
				clear_array = oilExporterInfo
				clear_array = aluminiumExporters
				clear_array = aluminiumExporterInfo
				clear_array = foodExporters
				clear_array = foodExporterInfo
				clear_array = rareEarthExporterInfo
				clear_array = rareEarthExporters
				clear_array = steelExporters
				clear_array = steelExporterInfo
				clear_array = chromiumExporters
				clear_array = chromiumExporterInfo

				generate_available_chromium_import_array = yes
				sort_price_number_chromium = yes



			}
			steel_button_sorted_click = {
				set_variable = { steel_trade = 0 }
				clear_array = oilExporters
				clear_array = oilExporterInfo
				clear_array = aluminiumExporters
				clear_array = aluminiumExporterInfo
				clear_array = foodExporters
				clear_array = foodExporterInfo
				clear_array = rareEarthExporterInfo
				clear_array = rareEarthExporters
				clear_array = steelExporters
				clear_array = steelExporterInfo
				clear_array = chromiumExporters
				clear_array = chromiumExporterInfo
			}
			steel_button_sort_click = {
				set_variable = { steel_trade = 0 }
				set_variable = { nuclear_trade = 0 }
				set_variable = { rare_earth_trade = 0 }
				set_variable = { food_trade = 0 }
				set_variable = { aluminum_trade = 0 }
				set_variable = { oil_trade = 0 }
				set_variable = { steel_trade = 1 }

				clear_array = oilExporters
				clear_array = oilExporterInfo
				clear_array = aluminiumExporters
				clear_array = aluminiumExporterInfo
				clear_array = foodExporters
				clear_array = foodExporterInfo
				clear_array = rareEarthExporterInfo
				clear_array = rareEarthExporters
				clear_array = steelExporters
				clear_array = steelExporterInfo
				clear_array = chromiumExporters
				clear_array = chromiumExporterInfo

				generate_available_steel_import_array = yes
				sort_price_number_steel = yes

			}
			rare_earth_button_sorted_click = {
				set_variable = { rare_earth_trade = 0 }
				clear_array = oilExporters
				clear_array = oilExporterInfo
				clear_array = aluminiumExporters
				clear_array = aluminiumExporterInfo
				clear_array = foodExporters
				clear_array = foodExporterInfo
				clear_array = rareEarthExporterInfo
				clear_array = rareEarthExporters
				clear_array = steelExporters
				clear_array = steelExporterInfo
				clear_array = chromiumExporters
				clear_array = chromiumExporterInfo
			}
			rare_earth_button_sort_click = {
				set_variable = { steel_trade = 0 }
				set_variable = { nuclear_trade = 0 }
				set_variable = { rare_earth_trade = 0 }
				set_variable = { food_trade = 0 }
				set_variable = { aluminum_trade = 0 }
				set_variable = { oil_trade = 0 }
				set_variable = { rare_earth_trade = 1 }

				clear_array = oilExporters
				clear_array = oilExporterInfo
				clear_array = aluminiumExporters
				clear_array = aluminiumExporterInfo
				clear_array = foodExporters
				clear_array = foodExporterInfo
				clear_array = rareEarthExporterInfo
				clear_array = rareEarthExporters
				clear_array = steelExporters
				clear_array = steelExporterInfo
				clear_array = chromiumExporters
				clear_array = chromiumExporterInfo

				generate_available_rareEarth_import_array = yes
				sort_price_number_rareEarth = yes
			}
			food_button_sorted_click = {
				set_variable = { food_trade = 0 }
				clear_array = oilExporters
				clear_array = oilExporterInfo
				clear_array = aluminiumExporters
				clear_array = aluminiumExporterInfo
				clear_array = foodExporters
				clear_array = foodExporterInfo
				clear_array = rareEarthExporterInfo
				clear_array = rareEarthExporters
				clear_array = steelExporters
				clear_array = steelExporterInfo
				clear_array = chromiumExporters
				clear_array = chromiumExporterInfo
			}
			food_button_sort_click = {
				set_variable = { steel_trade = 0 }
				set_variable = { nuclear_trade = 0 }
				set_variable = { rare_earth_trade = 0 }
				set_variable = { food_trade = 0 }
				set_variable = { aluminum_trade = 0 }
				set_variable = { oil_trade = 0 }
				set_variable = { food_trade = 1 }

				clear_array = oilExporters
				clear_array = oilExporterInfo
				clear_array = aluminiumExporters
				clear_array = aluminiumExporterInfo
				clear_array = foodExporters
				clear_array = foodExporterInfo
				clear_array = rareEarthExporterInfo
				clear_array = rareEarthExporters
				clear_array = steelExporters
				clear_array = steelExporterInfo
				clear_array = chromiumExporters
				clear_array = chromiumExporterInfo

				generate_available_food_import_array = yes
				sort_resource_number_food = yes #I dont know if this is useful or not, testind didnt show any results one way or another
				sort_price_number_food = yes
			}
			aluminum_button_sorted_click = {
				set_variable = { aluminum_trade = 0 }
				clear_array = oilExporters
				clear_array = oilExporterInfo
				clear_array = aluminiumExporters
				clear_array = aluminiumExporterInfo
				clear_array = foodExporters
				clear_array = foodExporterInfo
				clear_array = rareEarthExporterInfo
				clear_array = rareEarthExporters
				clear_array = steelExporters
				clear_array = steelExporterInfo
				clear_array = chromiumExporters
				clear_array = chromiumExporterInfo
			}
			aluminum_button_sort_click = {
				set_variable = { steel_trade = 0 }
				set_variable = { nuclear_trade = 0 }
				set_variable = { rare_earth_trade = 0 }
				set_variable = { food_trade = 0 }
				set_variable = { aluminum_trade = 0 }
				set_variable = { oil_trade = 0 }
				set_variable = { aluminum_trade = 1 }

				clear_array = oilExporters
				clear_array = oilExporterInfo
				clear_array = aluminiumExporters
				clear_array = aluminiumExporterInfo
				clear_array = foodExporters
				clear_array = foodExporterInfo
				clear_array = rareEarthExporterInfo
				clear_array = rareEarthExporters
				clear_array = steelExporters
				clear_array = steelExporterInfo
				clear_array = chromiumExporters
				clear_array = chromiumExporterInfo

				generate_available_aluminium_import_array = yes
				sort_price_number_aluminium = yes
			}
			oil_button_sorted_click = {
				set_variable = { oil_trade = 0 }
				clear_array = oilExporters
				clear_array = oilExporterInfo
				clear_array = aluminiumExporters
				clear_array = aluminiumExporterInfo
				clear_array = foodExporters
				clear_array = foodExporterInfo
				clear_array = rareEarthExporterInfo
				clear_array = rareEarthExporters
				clear_array = steelExporters
				clear_array = steelExporterInfo
				clear_array = chromiumExporters
				clear_array = chromiumExporterInfo
			}
			oil_button_sort_click = {
				set_variable = { steel_trade = 0 }
				set_variable = { nuclear_trade = 0 }
				set_variable = { rare_earth_trade = 0 }
				set_variable = { food_trade = 0 }
				set_variable = { aluminum_trade = 0 }
				set_variable = { oil_trade = 0 }
				set_variable = { oil_trade = 1 }

				clear_array = oilExporters
				clear_array = oilExporterInfo
				clear_array = aluminiumExporters
				clear_array = aluminiumExporterInfo
				clear_array = foodExporters
				clear_array = foodExporterInfo
				clear_array = rareEarthExporterInfo
				clear_array = rareEarthExporters
				clear_array = steelExporters
				clear_array = steelExporterInfo
				clear_array = chromiumExporters
				clear_array = chromiumExporterInfo

				generate_available_oil_import_array = yes
				sort_price_number_oil = yes
			}
			#Grid
			buy_food_click = {
				set_variable = {
					ROOT.chromium_prompt = 1
				}
				set_variable = {
					ROOT.currentPurchaser = THIS.id
				}
				set_variable = {
					ROOT.currentAvailableChromiumExportPrompt = currentAvailablefoodExport
				}
				set_variable = {
					ROOT.pricePerUnit = foodExporterPrice^ROOT
				}
				save_global_event_target_as = this_trade_country
				set_variable = {
					ROOT.purchase_amount = foodExportTargetAmount^ROOT
				}
				set_variable = {
					ROOT.purchase_amount_prior = foodExportTargetAmount^ROOT
				}
			}
			buy_rare_earth_click = {
				set_variable = {
					ROOT.chromium_prompt = 1
				}
				set_variable = {
					ROOT.currentPurchaser = THIS.id
				}
				set_variable = {
					ROOT.currentAvailableChromiumExportPrompt = currentAvailablerareEarthExport
				}
				set_variable = {
					ROOT.pricePerUnit = rareEarthExporterPrice^ROOT
				}
				save_global_event_target_as = this_trade_country
				set_variable = {
					ROOT.purchase_amount = rareEarthExportTargetAmount^ROOT
				}
				set_variable = {
					ROOT.purchase_amount_prior = rareEarthExportTargetAmount^ROOT
				}
			}
			buy_aluminum_click = {
				set_variable = {
					ROOT.chromium_prompt = 1
				}
				set_variable = {
					ROOT.currentPurchaser = THIS.id
				}
				set_variable = {
					ROOT.currentAvailableChromiumExportPrompt = currentAvailablealuminiumExport
				}
				set_variable = {
					ROOT.pricePerUnit = aluminiumExporterPrice^ROOT
				}
				save_global_event_target_as = this_trade_country
				set_variable = {
					ROOT.purchase_amount = aluminiumExportTargetAmount^ROOT
				}
				set_variable = {
					ROOT.purchase_amount_prior = aluminiumExportTargetAmount^ROOT
				}
			}
			buy_oil_click = {
				set_variable = {
					ROOT.chromium_prompt = 1
				}
				set_variable = {
					ROOT.currentPurchaser = THIS.id
				}
				set_variable = {
					ROOT.currentAvailableChromiumExportPrompt = currentAvailableoilExport
				}
				set_variable = {
					ROOT.pricePerUnit = oilExporterPrice^ROOT
				}
				save_global_event_target_as = this_trade_country
				set_variable = {
					ROOT.purchase_amount = oilExportTargetAmount^ROOT
				}
				set_variable = {
					ROOT.purchase_amount_prior = oilExportTargetAmount^ROOT
				}
			}
			buy_steel_click = {
				set_variable = {
					ROOT.chromium_prompt = 1
				}
				set_variable = {
					ROOT.currentPurchaser = THIS.id
				}
				set_variable = {
					ROOT.currentAvailableChromiumExportPrompt = currentAvailablesteelExport
				}
				set_variable = {
					ROOT.pricePerUnit = steelExporterPrice^ROOT
				}
				save_global_event_target_as = this_trade_country
				set_variable = {
					ROOT.purchase_amount = steelExportTargetAmount^ROOT
				}
				set_variable = {
					ROOT.purchase_amount_prior = steelExportTargetAmount^ROOT
				}
			}

			buy_chromium_click = {
				set_variable = {
					ROOT.chromium_prompt = 1
				}
				set_variable = {
					ROOT.currentPurchaser = THIS.id
				}
				set_variable = {
					ROOT.currentAvailableChromiumExportPrompt = currentAvailableChromiumExport
				}
				set_variable = {
					ROOT.pricePerUnit = chromiumExporterPrice^ROOT
				}
				save_global_event_target_as = this_trade_country
				set_variable = {
					ROOT.purchase_amount = chromiumExportTargetAmount^ROOT 
				}
				set_variable = {
					ROOT.purchase_amount_prior = chromiumExportTargetAmount^ROOT 
				}
			}
		}
	}
}
