ideas = {

	country = {

		divided_syria = {
			on_add = { log = "[GetDateText]: [Root.GetName]: add idea divided_syria" }
			picture = divided_syria
			allowed = {
				original_tag = SYR
			}

			modifier = {
				conscription_factor = -0.4
				MONTHLY_POPULATION = -0.5
			}
		}
		divided_syria_1 = {
			on_add = { log = "[GetDateText]: [Root.GetName]: add idea divided_syria_1" }

			picture = divided_syria

			allowed = {
				original_tag = SYR
			}

			modifier = {
				conscription_factor = -0.3
				MONTHLY_POPULATION = -0.375
			}
		}
		divided_syria_2 = {
			on_add = { log = "[GetDateText]: [Root.GetName]: add idea divided_syria_2" }

			picture = divided_syria

			allowed = {
				original_tag = SYR
			}

			modifier = {
				conscription_factor = -0.2
				MONTHLY_POPULATION = -0.25
			}
		}
		divided_syria_3 = {
			on_add = { log = "[GetDateText]: [Root.GetName]: add idea divided_syria_3" }

			picture = divided_syria

			allowed = {
				original_tag = SYR
			}

			modifier = {
				conscription_factor = -0.1
				MONTHLY_POPULATION = -0.125
			}
		}

		syrian_social_nationalists = {
			on_add = { log = "[GetDateText]: [Root.GetName]: add idea syrian_social_nationalists" }
			picture = ssnp_party_banned
			allowed = {
				original_tag = SYR
			}

			allowed_civil_war = {
				has_government = nationalist
			}

			modifier = {
				conscription_factor = 0.1
				nationalist_drift = 0.1
			}
		}

		syrian_social_nationalists_inc = {
			on_add = { log = "[GetDateText]: [Root.GetName]: add idea syrian_social_nationalists_inc" }
			picture = syrian_social_nationalists
			allowed = {
				original_tag = SYR
			}

			allowed_civil_war = {
				has_government = nationalist
			}

			modifier = {
				conscription_factor = 0.15
				nationalist_drift = 0.2
				political_power_factor = -0.10
			}
		}

		palestine_liberation_groups = {
			on_add = { log = "[GetDateText]: [Root.GetName]: add idea palestine_liberation_groups" }
			picture = palestine_liberation_groups
			allowed = {
				original_tag = SYR
			}

			allowed_civil_war = {
				has_government = communism
			}

			modifier = {
				conscription_factor = 0.03

			}
		}

		palestine_liberation_groups_integrated = {
			on_add = { log = "[GetDateText]: [Root.GetName]: add idea palestine_liberation_groups_integrated" }
			picture = palestine_liberation_groups
			allowed = {
				original_tag = SYR
			}

			allowed_civil_war = {
				has_government = communism
			}

			modifier = {
				conscription_factor = 0.03
				army_morale_factor = -0.10
				army_org_factor = -0.10
				stability_factor = -0.05
			}
		}

		syrian_shiite = {
			on_add = { log = "[GetDateText]: [Root.GetName]: add idea syrian_shiite" }
			picture = syrian_shiite
			allowed = {
				original_tag = SYR
			}

			allowed_civil_war = {
				has_government = communism
			}

			modifier = {
				conscription_factor = 0.05
			}
		}

		syrian_shiite_integrated = {
			on_add = { log = "[GetDateText]: [Root.GetName]: add idea syrian_shiite_integrated" }
			picture = syrian_shiite
			allowed = {
				original_tag = SYR
			}

			allowed_civil_war = {
				has_government = communism
			}

			modifier = {
				conscription_factor = 0.05
				communism_drift = 0.02
				political_power_factor = -0.10
				stability_factor = -0.05
			}
		}

		alawite_high_command = {
			on_add = { log = "[GetDateText]: [Root.GetName]: add idea alawite_high_command" }

			allowed = {
				original_tag = SYR
				original_tag = TUR
			}

			allowed_civil_war = {
				has_government = communism
			}

			modifier = {
				military_leader_cost_factor = 0.50
				stability_factor = 0.05
			}
		}

		alawite_high_command_strengthened = {
			on_add = { log = "[GetDateText]: [Root.GetName]: add idea alawite_high_command" }
			allowed = {
				original_tag = SYR
			}

			allowed_civil_war = {
				has_government = communism
			}

			picture = alawite_high_command

			modifier = {
				military_leader_cost_factor = 0.50
				stability_factor = 0.05
				army_org_factor = 0.10
			}
		}

		baath_party_banned = {
			on_add = { log = "[GetDateText]: [Root.GetName]: add idea baath_party_banned" }

			allowed = {
				original_tag = FSA
			}

			allowed_civil_war = {
				NOT = { has_government = communism }
			}

			modifier = {
				communism_drift = -0.03
				stability_factor = -0.03
			}
		}

		ssnp_party_banned = {
			on_add = { log = "[GetDateText]: [Root.GetName]: add idea ssnp_party_banned" }

			allowed = {
				original_tag = FSA
			}

			allowed_civil_war = {
				OR = {
					NOT = { has_government = nationalist }
					NOT = { has_government = communism }
				}
			}

			modifier = {
				nationalist_drift = -0.03
				stability_factor = -0.03
			}
		}

		salafist_party_banned = {
			on_add = { log = "[GetDateText]: [Root.GetName]: add idea salafist_party_banned" }

			allowed = {
				original_tag = FSA
			}

			allowed_civil_war = {
				NOT = { has_government = fascism }
			}

			modifier = {
				fascism_drift = -0.03
				stability_factor = -0.03
			}
		}

		true_caliphate = {
			on_add = { log = "[GetDateText]: [Root.GetName]: add idea true_caliphate" }

			allowed = {
				original_tag = NUS
				has_government = fascism
			}

			allowed_civil_war = {
				NOT = { has_government = fascism }
			}

			modifier = {
				drift_defence_factor = 0.10
			}
		}

		al_qaeda_network = {
			on_add = { log = "[GetDateText]: [Root.GetName]: add idea al_qaeda_network" }

			allowed = {
				OR = {
					has_government = fascism
					has_completed_focus = SYR_ally_alqaeda
				}
			}

			modifier = {
				send_volunteers_tension = -0.15
				send_volunteer_size = 2
				send_volunteer_divisions_required = -0.2
			}
		}

		global_salafist_recruitment = {
			on_add = { log = "[GetDateText]: [Root.GetName]: add idea global_salafist_recruitment" }

			allowed = {
				OR = {
					has_government = fascism
					has_completed_focus = SYR_safehaven_for_islamists
				}
			}

			allowed_civil_war = {
				NOT = { has_government = fascism }
			}

			modifier = {
				conscription = 0.01
			}
		}

		husband_minister = {
			on_add = { log = "[GetDateText]: [Root.GetName]: add idea husband_minister" }

			allowed = {
				original_tag = SYR
				has_country_leader = { name = "Bushra al-Assad" }
			}

			allowed_civil_war = {
				has_country_leader = { name = "Bushra al-Assad" }
			}

			modifier = {
				drift_defence_factor = 0.10
				subversive_activites_upkeep = -0.25
			}
		}

		syrian_health_care_reform = {
			on_add = { log = "[GetDateText]: [Root.GetName]: add idea syrian_health_care_reform" }

			allowed = {
				original_tag = SYR
			}

			allowed_civil_war = {
				always = yes
			}

			modifier = {
				political_power_gain = 0.05
				monthly_population = 0.10
				health_cost_multiplier_modifier = -0.15
			}
		}

		loyal_marriage = {
			on_add = { log = "[GetDateText]: [Root.GetName]: add idea loyal_marriage" }

			allowed = {
				original_tag = SYR
				has_country_leader = { name = "Bashar al-Assad" }
			}

			picture = high_society

			allowed_civil_war = {
				has_country_leader = { name = "Bashar al-Assad" }
			}

			modifier = {
				production_speed_buildings_factor = 0.10
			}
		}

		arab_news_network = {
			on_add = { log = "[GetDateText]: [Root.GetName]: add idea arab_news_network" }

			allowed = {
				original_tag = SYR
			}
		
			picture = propaganda

			allowed_civil_war = {
			}

			modifier = {
				drift_defence_factor = 0.10
			}
		}

		infiltrate_hezbollah_idea = {
			on_add = { log = "[GetDateText]: [Root.GetName]: add idea infiltrate_hezbollah_idea" }

			allowed = {
				has_country_flag = HEZ_Infiltrated_by_SYR
			}

			allowed_civil_war = {
				always = no
			}

			targeted_modifier = {
				tag = HEZ
				attack_bonus_against = 0.1
			}
		}

		syria_jewish_rights_guaranteed = {
			on_add = { log = "[GetDateText]: [Root.GetName]: add idea syria_jewish_rights_guaranteed" }

			allowed = {
				owns_state = 205
				owns_state = 204
				owns_state = 207
				owns_state = 207
			}

			allowed_civil_war = {
				always = no
			}

			modifier = {
				stability_factor = -0.10
				democratic_drift = 0.05
				political_power_factor = -0.10
				consumer_goods_factor = 0.05
			}
		}

		syrian_peoples_army = {
			on_add = { log = "[GetDateText]: [Root.GetName]: add idea syrian_peoples_army" }

			allowed = {
			}

			allowed_civil_war = {
				always = no
			}

			picture = manpower_bonus

			modifier = {
				conscription = -0.01
				stability_factor = 0.10
				army_core_defence_factor = 0.10
			}
		}

		syrian_electronic_army = {
			on_add = { log = "[GetDateText]: [Root.GetName]: add idea syrian_electronic_army" }

			allowed = {
			}

			allowed_civil_war = {
				always = no
			}

			picture = manpower_bonus

			modifier = {
				encryption = 0.50
				decryption = 0.50
			}
		}

		syrian_electronic_army_LAR = {
			on_add = { log = "[GetDateText]: [Root.GetName]: add idea syrian_electronic_army_LAR" }
			name = syrian_electronic_army
			allowed = {
			}

			allowed_civil_war = {
				always = no
			}

			picture = manpower_bonus

			modifier = {
				intel_network_gain_factor = 0.15
				intelligence_agency_defense = 0.5
			}
		}

		syria_tourism_invigorated = {
			on_add = { log = "[GetDateText]: [Root.GetName]: add idea syria_tourism_invigorated" }

			allowed = {
				has_war = no
			}

			allowed_civil_war = {
				always = no
			}

			picture = foreign_capital

			modifier = {
				production_speed_buildings_factor = 0.15
			}
		}

		syria_increased_resource_exports = {
			on_add = { log = "[GetDateText]: [Root.GetName]: add idea syria_increased_resource_exports" }

			allowed = {
			}

			allowed_civil_war = {
				always = no
			}

			picture = oil_profits

			modifier = {
				consumer_goods_factor = -0.05
				min_export = 0.1
			}
		}

		syria_agricultural_subsidies = {
			on_add = { log = "[GetDateText]: [Root.GetName]: add idea syria_agricultural_subsidies" }

			allowed = {
			}

			allowed_civil_war = {
				always = no
			}

			picture = agriculture

			modifier = {
				stability_factor = 0.10
				monthly_population = 0.10
				custom_modifier_tooltip = TT_SYR_AGRICULTURAL_SUBSIDIES
			}
		}

		syria_increased_agricultural_subsidies = {
			on_add = { log = "[GetDateText]: [Root.GetName]: add idea syria_increased_agricultural_subsidies" }

			allowed = {
			}

			allowed_civil_war = {
				always = no
			}

			picture = agriculture

			modifier = {
				stability_factor = 0.15
				monthly_population = 0.15
				custom_modifier_tooltip = TT_SYR_AGRICULTURAL_SUBSIDIES_INCREASED
			}
		}

		syria_decreased_agricultural_subsidies = {
			on_add = { log = "[GetDateText]: [Root.GetName]: add idea syria_decreased_agricultural_subsidies" }

			allowed = {
			}

			allowed_civil_war = {
				always = no
			}

			picture = agriculture

			modifier = {
				stability_factor = 0.05
				monthly_population = 0.05
				custom_modifier_tooltip = TT_SYR_AGRICULTURAL_SUBSIDIES_DECREASED
			}
		}

		syria_support_anime = {
			on_add = { log = "[GetDateText]: [Root.GetName]: add idea syria_support_anime" }

			allowed = {
			}

			allowed_civil_war = {
				always = no
			}

			picture = one_child_policy

			modifier = {
				MONTHLY_POPULATION = -0.10
			}
		}

		syria_bakdash = {
			on_add = { log = "[GetDateText]: [Root.GetName]: add idea syria_bakdash" }

			allowed_civil_war = {
				always = no
			}

			picture = export_bakdash

			modifier = {
				custom_modifier_tooltip = TT_SYR_BAKDASH_MODIFIER
				production_speed_buildings_factor = 0.05
			}
		}

		syria_socialist_welfare = {
			on_add = { log = "[GetDateText]: [Root.GetName]: add idea syria_socialist_welfare" }

			allowed = {
			}

			allowed_civil_war = {
				always = no
			}

			picture = socdemwelfare

			modifier = {
				communism_drift = 0.1
				democratic_drift = 0.3
			}
		}

		syria_islamist_welfare = {
			on_add = { log = "[GetDateText]: [Root.GetName]: add idea syria_islamist_welfare" }

			allowed = {
			}

			allowed_civil_war = {
				always = no
			}

			picture = islam

			modifier = {
				fascism_drift = 0.1
				neutrality_drift = 0.3
			}
		}

		syria_nationalist_rise = {
			on_add = { log = "[GetDateText]: [Root.GetName]: add idea syria_nationalist_rise" }

			allowed = {
			}

			allowed_civil_war = {
				always = no
			}

			picture = fascism

			modifier = {
				nationalist_drift = 0.4
				drift_defence_factor = 0.2
			}
		}

		syria_natsec_constitution = {
			on_add = { log = "[GetDateText]: [Root.GetName]: add idea syria_natsec_constitution" }

			allowed = {
			}

			allowed_civil_war = {
				always = no
			}

			picture = constitution

			modifier = {
				nationalist_drift = 0.2
				female_random_country_leader_chance = 50
			}
		}

		syria_demsec_constitution = {
			on_add = { log = "[GetDateText]: [Root.GetName]: add idea syria_demsec_constitution" }

			allowed = {
			}

			allowed_civil_war = {
				always = no
			}

			picture = "liberalism"

			modifier = {
				female_random_country_leader_chance = 50
				democratic_drift = 0.2
			}
		}

		syria_progressive_ideals = {
			on_add = { log = "[GetDateText]: [Root.GetName]: add idea syria_progressive_ideals" }

			allowed = {
			}

			allowed_civil_war = {
				always = no
			}

			picture = research

			modifier = {
				research_speed_factor = 0.1
			}
		}

		syria_sharia_law = {
			on_add = { log = "[GetDateText]: [Root.GetName]: add idea syria_sharia_law" }

			allowed = {
			}

			allowed_civil_war = {
				always = no
			}

			picture = "liberalism"

			modifier = {
				neutrality_drift = 0.2
				drift_defence_factor = 0.2
			}
		}

		socialist_islamism = {
			on_add = { log = "[GetDateText]: [Root.GetName]: add idea socialist_islamism" }
			picture = "islam"
			allowed = { }
			modifier = {
				nationalist_drift = 0.05
				communism_drift = 0.02
				neutrality_drift = 0.01
			}
		}

		syria_diversity_our_identity = {
			on_add = { log = "[GetDateText]: [Root.GetName]: add idea syria_diversity_our_identity" }

			allowed = {
			}

			allowed_civil_war = {
				always = no
			}

			picture = "liberalism"

			modifier = {
				defensive_war_stability_factor = 0.03
				army_core_defence_factor = 0.05
				army_core_attack_factor = 0.05
			}
		}

		syria_federal_government = {
			on_add = { log = "[GetDateText]: [Root.GetName]: add idea syria_federal_government" }

			allowed = {
			}

			allowed_civil_war = {
				always = no
			}

			picture = "liberalism"

			modifier = {
				defensive_war_stability_factor = 0.05
				army_core_defence_factor = 0.1
				army_core_attack_factor = 0.1
				drift_defence_factor = -0.2
			}
		}

		syria_bureaucratic_government = {
			on_add = { log = "[GetDateText]: [Root.GetName]: add idea syria_bureaucratic_government" }

			allowed = {
			}

			allowed_civil_war = {
				always = no
			}

			picture = "liberalism"

			modifier = {
				army_org_factor = 0.1
				drift_defence_factor = 0.1
			}
		}

		syria_direct_democracy = {
			on_add = { log = "[GetDateText]: [Root.GetName]: add idea syria_direct_democracy" }

			allowed = {
			}

			allowed_civil_war = {
				always = no
			}

			picture = "political_freedom"

			modifier = {
				political_power_gain = -0.05
				democratic_drift = 0.1
			}
		}

		syria_islamism_guaranteed_minority_rights = {
			on_add = { log = "[GetDateText]: [Root.GetName]: add idea syria_islamism_guaranteed_minority_rights" }

			allowed = {
			}

			allowed_civil_war = {
				always = no
			}

			picture = high_society

			modifier = {
				political_power_gain = -0.1
				stability_factor = 0.05
				drift_defence_factor = -0.15
			}
		}
		SYR_idea_army_research_centre = {
			on_add = { log = "[GetDateText]: [Root.GetName]: add idea SYR_idea_army_research_centre" }

			picture = frozen_conflict_medium

			modifier = {
				research_speed_factor = 0.1
				industrial_capacity_factory = 0.05
			}
		}
		SYR_idea_investment_in_research = {
			on_add = { log = "[GetDateText]: [Root.GetName]: add idea SYR_idea_army_research_centre" }

			picture = research_bonus

			modifier = {
 				research_speed_factor = 0.1
			}
		}
		SYR_idea_new_electronics_university = {
			on_add = { log = "[GetDateText]: [Root.GetName]: add idea SYR_idea_new_electronics_university" }

			picture = tower_investment

			modifier = {
				research_speed_factor = 0.05
			}
		}
		SYR_idea_refoming_education = {
			on_add = { log = "[GetDateText]: [Root.GetName]: add idea SYR_idea_refoming_education" }

			picture = national_unity

			modifier = {
				research_speed_factor = 0.05
				stability_weekly_factor = 0.05
			}
		}
		SYR_idea_refoming_education1 = {
			on_add = { log = "[GetDateText]: [Root.GetName]: add idea SYR_idea_refoming_education1" }

			picture = national_unity

			modifier = {
				research_speed_factor = 0.1
				stability_weekly_factor = 0.1
				political_power_factor = 0.05
			}
		}
	}


}
