state = {
	id = 376
	name = "STATE_376"

	history = {
		owner = MOR
		victory_points = {
			1989 1
		}
		victory_points = {
			4933 1
		}
		buildings = {
			infrastructure = 1
			internet_station = 1

		}
		add_core_of = MOR
		2017.1.1 = {
			buildings = {
				internet_station = 2
			}
			add_manpower = 515948
		}
	}

	provinces = {
		1989 4933 7908 7958 8046 6436
	}
	manpower = 1977915
	buildings_max_level_factor = 1.000
	state_category = state_03
}
