state = {
	id = 382
	name = "STATE_382"
	resources = {
		oil = 2
	}

	history = {
		owner = ALG
		victory_points = {
			10731 1
		}
		victory_points = {
			1958 1
		}
		buildings = {
			infrastructure = 0
			internet_station = 0

		}
		add_core_of = ALG
		2017.1.1 = {
			buildings = {
				internet_station = 0
			}
			add_manpower = 99953

		}

	}

	provinces = {
		1095 1958 8088 10731 12711 12842
	}
	manpower = 272458
	buildings_max_level_factor = 1.000
	state_category = state_00
}
