opinion_modifiers = {

	SWI_alps_treaty = {
		value = 25
	}

	SWI_alps_treaty_trade = {
		trade = yes
		value = 25
	}

	SWI_european_tanks_opinion = {
		value = 50
	}

	SWI_german_treaty = {
		value = 50
	}

	SWI_german_treaty_trade = {
		trade = yes
		value = 50
	}

	SWI_join_un = {
		value = 20
	}
}