﻿division_template = {
	name = "Liwa Mushat Mechaniqui" 	#Mechanised Brigade

	regiments = {
		Mech_Inf_Bat = { x = 0 y = 0 }
		Mech_Inf_Bat = { x = 0 y = 1 }
		Mech_Inf_Bat = { x = 0 y = 2 }
		armor_Bat = { x = 1 y = 0 }
	}
	support = {
		armor_Recce_Comp = { x = 0 y = 0 }
		L_Engi_Comp = { x = 0 y = 1 }
		Arty_Battery = { x = 0 y = 2 }
	}
}

division_template = {
	name = "Liwa Mushat" 		#Infantry Brigade

	regiments = {
		Mot_Inf_Bat = { x = 0 y = 0 }
		Mot_Inf_Bat = { x = 0 y = 1 }
		Mot_Inf_Bat = { x = 0 y = 2 }
		Arty_Bat = { x = 0 y = 3 }
	}
	support = {
		Mot_Recce_Comp = { x = 0 y = 0 }
		L_Engi_Comp = { x = 0 y = 1 }
		Arty_Battery = { x = 0 y = 2 }
	}
}

division_template = {
	name = "Fawj Commandos" 		#Commando Regiment

	regiments = {
		Special_Forces = { x = 0 y = 0 }
		Special_Forces = { x = 0 y = 1 }
	}

	priority = 2
}

division_template = {
	name = "Fawj Midali" 		#Airborne Regiment

	regiments = {
		L_Air_Inf_Bat = { x = 0 y = 0 }
		L_Air_Inf_Bat = { x = 0 y = 1 }
	}
}

units = {
	division = {
		name = "1. Liwa Mushat Mechaniqui"
		location = 792 #?
		division_template = "Liwa Mushat Mechaniqui"
		start_experience_factor = 0.3
		start_equipment_factor = 0.01
	}

	division = {
		name = "2. Liwa Mushat Mechaniqui"
		location = 792 #?
		division_template = "Liwa Mushat Mechaniqui"
		start_experience_factor = 0.3
		start_equipment_factor = 0.01
	}

	division = {
		name = "3. Liwa Mushat Mechaniqui"
		location = 13278 #?
		division_template = "Liwa Mushat Mechaniqui"
		start_experience_factor = 0.3
		start_equipment_factor = 0.01
	}

	division = {
		name = "5. Liwa Mushat Mechaniqui"
		location = 792 #?
		division_template = "Liwa Mushat Mechaniqui"
		start_experience_factor = 0.3
		start_equipment_factor = 0.01
	}

	division = {
		name = "6. Liwa Mushat Mechaniqui"
		location = 13278 #?
		division_template = "Liwa Mushat Mechaniqui"
		start_experience_factor = 0.3
		start_equipment_factor = 0.01
	}

	division = {
		name = "7. Liwa Mushat Mechaniqui"
		location = 1108 #?
		division_template = "Liwa Mushat Mechaniqui"
		start_experience_factor = 0.3
		start_equipment_factor = 0.01
	}

	division = {
		name = "8. Liwa Mushat Mechaniqui"
		location = 1108 #?
		division_template = "Liwa Mushat Mechaniqui"
		start_experience_factor = 0.3
		start_equipment_factor = 0.01
	}

	division = {
		name = "9. Liwa Mushat"
		location = 13278 #?
		division_template = "Liwa Mushat"
		start_experience_factor = 0.3
		start_equipment_factor = 0.01
	}

	division = {
		name = "10. Liwa Mushat"
		location = 1108 #?
		division_template = "Liwa Mushat"
		start_experience_factor = 0.3
		start_equipment_factor = 0.01
	}

	division = {
		name = "11. Liwa Mushat"
		location = 1108 #?
		division_template = "Liwa Mushat"
		start_experience_factor = 0.3
		start_equipment_factor = 0.01
	}

	division = {
		name = "1. Fawj Commandos"
		location = 1108 #?
		division_template = "Fawj Commandos"
		start_experience_factor = 0.5
		start_equipment_factor = 0.01
	}

	division = {
		name = "2. Fawj Commandos"
		location = 1108 #?
		division_template = "Fawj Commandos"
		start_experience_factor = 0.5
		start_equipment_factor = 0.01
	}

	division = {
		name = "Fawj Midali"
		location = 1108 #?
		division_template = "Fawj Midali"
		start_experience_factor = 0.5
		start_equipment_factor = 0.01
	}
}

instant_effect = {
	add_equipment_to_stockpile = {
		type = infantry_weapons1		 #M16
		amount = 4500
		producer = USA
	}

	add_equipment_to_stockpile = {
		type = infantry_weapons		 #AK-47
		amount = 1500
		producer = SOV
	}

	add_equipment_to_stockpile = {
		type = infantry_weapons1		 #FAMAS
		amount = 1500
		producer = FRA
	}

	add_equipment_to_stockpile = {
		type = infantry_weapons		 #G3
		amount = 1500
		producer = GER
	}

	add_equipment_to_stockpile = {
		type = infantry_weapons1		 #G3
		amount = 1500
		producer = SWI
	}

	add_equipment_to_stockpile = {
		type = Heavy_Anti_tank_1		 #TOW-2
		amount = 300
		producer = USA
	}

	add_equipment_to_stockpile = {
		type = Anti_tank_1		 #MILAN
		amount = 450
		producer = FRA
	}

	add_equipment_to_stockpile = {
		type = Anti_Air_0		 #Strela-2
		amount = 600
		producer = SOV
	}

	add_equipment_to_stockpile = {
		type = command_control_equipment
		amount = 1200
		producer = USA
	}

	add_equipment_to_stockpile = {
		type = MBT_1		 #M48
		#version_name = "M48 Patton"
		amount = 115
		producer = USA
	}

	add_equipment_to_stockpile = {
		type = MBT_1		 #T-55
		amount = 212
		producer = SOV
	}

	add_equipment_to_stockpile = {
		type = Rec_tank_0		 #Panhard AML
		#version_name = "AMX-13"
		amount = 36
		producer = FRA
	}

	add_equipment_to_stockpile = {
		type = APC_1		 #Panhard M3
		amount = 12
		producer = FRA
	}

	add_equipment_to_stockpile = {
		type = APC_1		 #AMX-VCI
		#version_name = "AMX-VCI"
		amount = 81
		producer = FRA
	}

	add_equipment_to_stockpile = {
		type = APC_2		 #M113
		amount = 1164
		producer = USA
	}

	add_equipment_to_stockpile = {
		type = APC_2		 #VAB
		amount = 81
		producer = FRA
	}

	add_equipment_to_stockpile = {
		type = SP_R_arty_0		 #BM-21
		amount = 23
		producer = SOV
	}

	add_equipment_to_stockpile = {
		type = artillery_0		 #M101
		#version_name = "M101"
		amount = 13
		producer = USA
	}

	add_equipment_to_stockpile = {
		type = artillery_0		 #D-30
		amount = 26
		producer = SOV
	}

	add_equipment_to_stockpile = {
		type = artillery_0		 #M114
		#version_name = "M114"
		amount = 18
		producer = USA
	}

	add_equipment_to_stockpile = {
		type = util_vehicle_2		 #Land Rover Defender
		amount = 200
		producer = ENG
	}

	add_equipment_to_stockpile = {
		type = util_vehicle_0		 #M151 Jeep
		amount = 200
		producer = USA
	}

	add_equipment_to_stockpile = {
		type = util_vehicle_0		 #Peugeot P4
		amount = 200
		producer = FRA
	}

	add_equipment_to_stockpile = {
		type = transport_helicopter1		#SA-330 Puma
		amount = 3
		producer = FRA
	}

	add_equipment_to_stockpile = {
		type = transport_helicopter1		#UH-1
		amount = 16
		producer = USA
	}
}