﻿division_template = {
	name = "Motor Rifle Brigade"
	regiments = {
		armor_Bat = { x = 0 y = 0 }
		Arm_Inf_Bat = { x = 0 y = 1 }
		Mech_Inf_Bat = { x = 0 y = 2 }

		Arty_Bat = { x = 1 y = 0 }
	}
	support = {
	   armor_Recce_Comp = { x = 0 y = 0 }
	   SP_Arty_Battery = { x = 0 y = 1 }
	}
}

units = {
	division = {
		name = "1st Motor Rifle Brigade"
		location = 4801		#Sergelene
		division_template = "Motor Rifle Brigade"
		start_experience_factor = 0.3
		start_equipment_factor = 0.01
	}

	division = {
		name = "2nd Motor Rifle Brigade"
		location = 4801		#
		division_template = "Motor Rifle Brigade"
		start_experience_factor = 0.3
		start_equipment_factor = 0.01
	}
	division = {
		name = "3rd Motor Rifle Brigade"
		location = 4801		#
		division_template = "Motor Rifle Brigade"
		start_experience_factor = 0.3
		start_equipment_factor = 0.01
	}
}

instant_effect = {
	add_equipment_to_stockpile = {
		type = infantry_weapons
		amount = 3000
		producer = SOV
	}
	add_equipment_to_stockpile = {
		type = Anti_tank_1
		amount = 100
		producer = SOV
	}
	add_equipment_to_stockpile = {
		type = Heavy_Anti_tank_0
		amount = 50
		producer = SOV
	}

	add_equipment_to_stockpile = {
		type = command_control_equipment
		amount = 550
		producer = SOV
	}

	add_equipment_to_stockpile = {
		type = Anti_Air_0		#Strela
		amount = 250
		producer = SOV
	}

	add_equipment_to_stockpile = {
		type = MBT_1		#T-55
		amount = 450
		producer = SOV
	}

	add_equipment_to_stockpile = {
		type = IFV_1		#BMP-1
		amount = 310
		producer = SOV
	}

	add_equipment_to_stockpile = {
		type = Rec_tank_0		#BRDM-2
		#version_name = "BRDM-2"
		amount = 120
		producer = UKR
	}

	add_equipment_to_stockpile = {
		type = APC_1		#BTR-60
		amount = 250
		producer = SOV
	}

	add_equipment_to_stockpile = {
		type = SP_R_arty_0		#BM-21
		amount = 40
		producer = SOV
	}

	add_equipment_to_stockpile = {
		type = artillery_0		#D-30
		amount = 150
		producer = SOV
	}

	add_equipment_to_stockpile = {
		type = attack_helicopter1		#Mi-24
		amount = 11
		producer = SOV
	}
}