﻿division_template = {
	name = "Batalyon Dobrovolchev"

	regiments = {
		L_Inf_Bat = { x = 0 y = 0 }
		L_Inf_Bat = { x = 0 y = 1 }
		L_Inf_Bat = { x = 0 y = 2 }
		L_Inf_Bat = { x = 0 y = 3 }
	}

	priority = 0
}

division_template = {
	name = "Brigada Dobrovolchev"

	regiments = {
		L_Inf_Bat = { x = 0 y = 0 }
		L_Inf_Bat = { x = 0 y = 1 }
		L_Inf_Bat = { x = 0 y = 2 }
	}
	support = {
		Arty_Battery = { x = 0 y = 0 }
	}

	priority = 0
}

division_template = {
	name = "Pekhotnaya Brigada"

	regiments = {
		Mot_Inf_Bat = { x = 0 y = 0 }
		Mot_Inf_Bat = { x = 0 y = 1 }
		Mot_Inf_Bat = { x = 0 y = 2 }
	}
	support = {
		Arty_Battery = { x = 0 y = 0 }
		L_Engi_Comp = { x = 0 y = 1 }
	}
}

division_template = {
	name = "Motorizovannaya Brigada"

	regiments = {
		Mech_Inf_Bat = { x = 0 y = 0 }
		Mech_Inf_Bat = { x = 0 y = 1 }
		Mech_Inf_Bat = { x = 0 y = 2 }
	}
	support = {
		SP_Arty_Battery = { x = 0 y = 0 }
		L_Engi_Comp = { x = 0 y = 1 }
	}
}

division_template = {
	name = "Batalyon Spetsnaza"

	regiments = {
		Mech_Inf_Bat = { x = 0 y = 0 }
		Mech_Inf_Bat = { x = 0 y = 1 }
		Mech_Inf_Bat = { x = 0 y = 2 }
	}
	support = {
		armor_Comp = { x = 0 y = 0 }
	}

	priority = 2
}

division_template = {
	name = "Mekhanizirovannaya Brigada"

	regiments = {
		Arm_Inf_Bat = { x = 0 y = 0 }
		Arm_Inf_Bat = { x = 0 y = 1 }
		Arm_Inf_Bat = { x = 0 y = 2 }
	}
	support = {
		SP_Arty_Battery = { x = 0 y = 0 }
		L_Engi_Comp = { x = 0 y = 1 }
	}
}

division_template = {
	name = "Kazachya Brigada"

	regiments = {
		Arm_Inf_Bat = { x = 0 y = 0 }
		Arm_Inf_Bat = { x = 0 y = 1 }
		Arm_Inf_Bat = { x = 0 y = 2 }
		SP_Arty_Bat = { x = 0 y = 3 }
		armor_Bat = { x = 1 y = 0 }
	}
	support = {
		H_Engi_Comp = { x = 0 y = 0 }
	}

	priority = 2
}

division_template = {
	name = "Tankovyi Batalyon"

	regiments = {
		armor_Bat = { x = 0 y = 0 }
		armor_Bat = { x = 0 y = 1 }
	}
	support = {
		armor_Recce_Comp = { x = 0 y = 0 }
	}
}

units = {
	#Donbass People's Militia
	division = {
		name = "Balayon 'Sever'"
		location = 3421
		division_template = "Batalyon Dobrovolchev"
		start_experience_factor = 0.4
		start_equipment_factor = 1.0
	}
	division = {
		name = "1-y Slavyanskaya Brigada"
		location = 6474
		division_template = "Motorizovannaya Brigada"
		start_experience_factor = 0.5
		start_equipment_factor = 1.0
	}
	division = {
		name = "Brigada 'Vostok'"
		location = 6505
		division_template = "Pekhotnaya Brigada"
		start_experience_factor = 0.5
		start_equipment_factor = 1.0
	}
	division = {
		name = "Brigada 'Oplot'"
		location = 3421
		division_template = "Mekhanizirovannaya Brigada"
		start_experience_factor = 0.5
		start_equipment_factor = 1.0
	}
	division = {
		name = "Russkaya Pravoslavnaya Armiya"
		location = 6474
		division_template = "Brigada Dobrovolchev"
		start_experience_factor = 0.4
		start_equipment_factor = 1.0
	}
	division = {
		name = "Shakhtyorskaya Diviziya"
		location = 6474
		division_template = "Brigada Dobrovolchev"
		start_experience_factor = 0.4
		start_equipment_factor = 1.0
	}
	division = {
		name = "Brigada 'Kalmius'"
		location = 6505		#Debaltseve
		division_template = "Batalyon Dobrovolchev"
		start_experience_factor = 0.5
		start_equipment_factor = 1.0
	}
	division = {
		name = "Batalyon 'Voskhod'"
		location = 3421
		division_template = "Batalyon Dobrovolchev"
		start_experience_factor = 0.4
		start_equipment_factor = 1.0
	}

	division = {
		name = "Batalyon 'Sparta'"
		location = 6505
		division_template = "Batalyon Spetsnaza"
		start_experience_factor = 0.6
		start_equipment_factor = 1.0
	}
	division = {
		name = "Respublikanskaya Gvardiya DNR"
		location = 6505
		division_template = "Mekhanizirovannaya Brigada"
		start_experience_factor = 0.6
		start_equipment_factor = 1.0
	}
	division = {
		name = "Brigada 'Pyatnashka'"
		location = 6474		#Marinka
		division_template = "Brigada Dobrovolchev"
		start_experience_factor = 0.4
		start_equipment_factor = 1.0
	}
	division = {
		name = "Brigada 'Dizel'"
		location = 6474
		division_template = "Tankovyi Batalyon"
		start_experience_factor = 0.5
		start_equipment_factor = 1.0
	}
	division = {
		name = "Mariupolsko-Khinganskyi Morskaya Pekhota"
		location = 3421
		division_template = "Pekhotnaya Brigada"
		start_experience_factor = 0.5
		start_equipment_factor = 1.0
	}

	#Independent DPR Forces

	#Independent LPR Forces
	division = {
		name = "Kazachya Natsionalnaya Gvardiya"
		location = 9461
		division_template = "Kazachya Brigada"
		start_experience_factor = 0.6
		start_equipment_factor = 1.0
	}

	division = {
		name = ""
		location = 9461
		division_template = "Mekhanizirovannaya Brigada"
		start_experience_factor = 0.5
		start_equipment_factor = 1.0
	}
}

instant_effect = {

	add_equipment_to_stockpile = {
		type = infantry_weapons		 #AKM
		amount = 3500
		producer = SOV
	}

	add_equipment_to_stockpile = {
		type = infantry_weapons1		 #AK-74
		amount = 2500
		producer = SOV
	}

	#add_equipment_to_stockpile = {
		#type = infantry_weapons2		 #AS Val
		#amount = 2500
		#producer = SOV
	#}

	add_equipment_to_stockpile = {
		type = infantry_weapons2		 #AK-74M
		amount = 2400
		producer = SOV
	}

	add_equipment_to_stockpile = {
		type = Anti_tank_1		 #Fagot
		amount = 50
		producer = SOV
	}

	add_equipment_to_stockpile = {
		type = Anti_tank_2		 #Metis
		amount = 50
		producer = SOV
	}

	add_equipment_to_stockpile = {
		type = Heavy_Anti_tank_2		 #Metis
		amount = 50
		producer = SOV
	}

	add_equipment_to_stockpile = {
		type = Heavy_Anti_tank_1		 #Spiral
		#version_name = "AT-6 Spiral"
		amount = 50
		producer = SOV
	}

	add_equipment_to_stockpile = {
		type = MBT_1		 #T-55
		amount = 1
		producer = SOV
	}

	add_equipment_to_stockpile = {
		type = MBT_1		 #T-64
		#version_name = "T-64"
		amount = 64
		producer = SOV
	}

	add_equipment_to_stockpile = {
		type = MBT_2		 #T-72B
		#version_name = "T-72B"
		amount = 50
		producer = SOV
	}

	add_equipment_to_stockpile = {
		type = IFV_1		 #BMP-1
		amount = 31
		producer = SOV
	}

	add_equipment_to_stockpile = {
		type = IFV_3		 #BMP-2
		amount = 126
		producer = SOV
	}

	add_equipment_to_stockpile = {
		type = APC_1		 #BTR-60
		amount = 4
		producer = SOV
	}

	add_equipment_to_stockpile = {
		type = APC_1		 #MT-LB
		amount = 50
		producer = SOV
	}

	add_equipment_to_stockpile = {
		type = APC_3		 #BTR-70
		amount = 16
		producer = SOV
	}

	add_equipment_to_stockpile = {
		type = APC_4		 #BTR-80
		amount = 31
		producer = SOV
	}

	add_equipment_to_stockpile = {
		type = APC_5		 #BTR-4
		amount = 3
		producer = UKR
	}

	add_equipment_to_stockpile = {
		type = Rec_tank_0		 #BRDM-2
		amount = 14
		producer = UKR
	}

	add_equipment_to_stockpile = {
		type = util_vehicle_0		 #Ural 4320
		amount = 200
		producer = SOV
	}

	add_equipment_to_stockpile = {
		type = util_vehicle_1		 #UAZ-469
		amount = 100
		producer = SOV
	}

	add_equipment_to_stockpile = {
		type = util_vehicle_3		 #Vodnik
		amount = 90
		producer = SOV
	}

	add_equipment_to_stockpile = {
		type = util_vehicle_4		 #BPM-97
		amount = 100
		producer = SOV
	}

	#add_equipment_to_stockpile = {
		#type = H_infantry_weapons		 #Various Soviet mortars
		#amount = 200
		#producer = SOV
	#}

	add_equipment_to_stockpile = {
		type = artillery_0		 #Various Soviet artys
		amount = 80
		producer = SOV
	}

	add_equipment_to_stockpile = {
		type = SP_arty_0		 #2S1 Gvozdika
		#version_name = "2S1 Gvozdika"
		amount = 15
		producer = SOV
	}

	add_equipment_to_stockpile = {
		type = SP_arty_0		 #2S5 Giatsint-S
		#version_name = "2S5 Giatsint-S"
		amount = 1
		producer = SOV
	}

	add_equipment_to_stockpile = {
		type = SP_arty_0		 #2S7 Pion
		#version_name = "2S7 Pion"
		amount = 5
		producer = SOV
	}

	add_equipment_to_stockpile = {
		type = SP_arty_0		 #2S3 Akatsiya
		amount = 15
		producer = SOV
	}

	add_equipment_to_stockpile = {
		type = SP_arty_1		 #2S19 Msta
		amount = 5
		producer = SOV
	}

	add_equipment_to_stockpile = {
		type = SP_R_arty_0		 #BM-21 Grad
		amount = 30
		producer = SOV
	}

	add_equipment_to_stockpile = {
		type = SP_R_arty_1		 #BM-27 Uragan
		amount = 5
		producer = SOV
	}

	add_equipment_to_stockpile = {
		type = SP_R_arty_1		 #TOS-1
		#version_name = "TOS-1"
		amount = 5
		producer = SOV
	}

	add_equipment_to_stockpile = {
		type = SP_R_arty_1		 #BM-30 Smerch
		#version_name = "BM-30 Smerch"
		amount = 5
		producer = SOV
	}

	add_equipment_to_stockpile = {
		type = Anti_Air_0		 #Strela
		amount = 50
		producer = SOV
	}

	add_equipment_to_stockpile = {
		type = Anti_Air_1		 #Igla
		amount = 50
		producer = SOV
	}

	add_equipment_to_stockpile = {
		type = Anti_Air_1		 #Grom
		amount = 50
		producer = SOV
	}

	add_equipment_to_stockpile = {
		type = command_control_equipment
		amount = 1100
		producer = SOV
	}
}
