﻿units = {

	### Naval OOB ###
	fleet = {
	   name = "Albahriat Almalakiat Fi Eamman"
	   naval_base = 10760
		task_force = {
			name = "Albahriat Almalakiat Fi Eamman"
			location = 10760
			ship = { name = "Qahir Al Amwaj" definition = corvette start_experience_factor = 0.30 equipment = { missile_corvette_2 = { amount = 1 owner = OMA creator = ENG } } }
			ship = { name = "Al Mua'zzar" definition = corvette start_experience_factor = 0.30 equipment = { missile_corvette_2 = { amount = 1 owner = OMA creator = ENG } } }
		}
	}
}
