﻿division_template = {
	name = "Motorizirana Brigada"

	regiments = {
		Mot_Inf_Bat = { x = 0 y = 0 }
		Mot_Inf_Bat = { x = 0 y = 1 }
		Mot_Inf_Bat = { x = 0 y = 2 }
		Mech_Inf_Bat = { x = 1 y = 0 }
		Arty_Bat = { x = 2 y = 0 }
		Arty_Bat = { x = 2 y = 1 }
	}
	support = {
		L_Engi_Comp = { x = 0 y = 0 }
		SP_AA_Battery = { x = 0 y = 1 }
	}
}

division_template = {
	name = "Tenkovska Brigada"

	regiments = {
		armor_Bat = { x = 0 y = 0 }
		armor_Bat = { x = 0 y = 1 }
		Arm_Inf_Bat = { x = 1 y = 0 }
		Mech_Inf_Bat = { x = 1 y = 1 }
		Mech_Inf_Bat = { x = 1 y = 2 }
		SP_Arty_Bat = { x = 2 y = 0 }
		SP_Arty_Bat = { x = 2 y = 1 }
	}
	support = {
		H_Engi_Comp = { x = 0 y = 0 }
		SP_AA_Battery = { x = 0 y = 1 }
	}
}

division_template = {
	name = "Mehanizovana Brigada"

	regiments = {
		armor_Bat = { x = 0 y = 0 }
		SP_Arty_Bat = { x = 0 y = 1 }
		SP_Arty_Bat = { x = 0 y = 2 }
		Arm_Inf_Bat = { x = 1 y = 0 }
		Mech_Inf_Bat = { x = 1 y = 1 }
		Mech_Inf_Bat = { x = 1 y = 2 }
		Mech_Inf_Bat = { x = 1 y = 3 }
	}
	support = {
		H_Engi_Comp = { x = 0 y = 0 }
		SP_AA_Battery = { x = 0 y = 1 }
	}
}

division_template = {
	name = "Padobranska Brigada"

	regiments = {
		L_Air_assault_Bat = { x = 0 y = 0 }
		L_Air_assault_Bat = { x = 0 y = 1 }
		L_Air_assault_Bat = { x = 0 y = 2 }
	}
}
division_template = {
	name = "Specijalna Brigada"

	regiments = {
		Special_Forces = { x = 0 y = 0 }
		Special_Forces = { x = 0 y = 1 }
		Special_Forces = { x = 0 y = 2 }
		Special_Forces = { x = 0 y = 3 }
	}
	support = {
		L_Recce_Comp = { x = 0 y = 0 }
		L_Engi_Comp = { x = 0 y = 1 }
	}
	priority = 2
}

#Motorizirana Brigada
#Tenkovski
#6 arm bde, 1 mech, 7 mot, 1 inf, 1 airborne, 1 special, 5 arty
#63. Paratroop Brigade

units = {
	division = {
		name = "252. Oklopna Brigada"
		location = 6970		#Kraljevo
		division_template = "Tenkovska Brigada"
		start_experience_factor = 0.4
		start_equipment_factor = 0.01
	}
	division = {
		name = "36. Tenkovska Brigada"
		location = 3617		#Novi Sad
		division_template = "Tenkovska Brigada"
		start_experience_factor = 0.3
		start_equipment_factor = 0.01
	}
	division = {
		name = "211. Tenkovska Brigada"
		location = 11887		#Niš
		division_template = "Tenkovska Brigada"
		start_experience_factor = 0.3
		start_equipment_factor = 0.01
	}
	division = {
		name = "252. Tenkovska Brigada"
		location = 3939		#frm. Kosovo
		division_template = "Tenkovska Brigada"
		start_experience_factor = 0.3
		start_equipment_factor = 0.01
	}
	division = {
		name = "1. Tenkovska Brigada"
		location = 11586		#Banjica
		division_template = "Tenkovska Brigada"
		start_experience_factor = 0.3
		start_equipment_factor = 0.01
	}
	division = {
		name = "1. Mehanizovana Brigada"
		location = 6970		#Kraljevo
		division_template = "Mehanizovana Brigada"
		start_experience_factor = 0.4
		start_equipment_factor = 0.01
	}
	division = {
		name = "2. Mehanizovana Brigada"
		location = 3623		#Kraljevo
		division_template = "Mehanizovana Brigada"
		start_experience_factor = 0.4
		start_equipment_factor = 0.01
	}
	division = {
		name = "243. Motorizirana Brigada"
		location = 3939		#frm Kosovo corp
		division_template = "Motorizirana Brigada"
		start_experience_factor = 0.4
		start_equipment_factor = 0.01
	}
	division = {
		name = "549. Motorizirana Brigada"
		location = 3939		#frm Kosovo corp
		division_template = "Motorizirana Brigada"
		start_experience_factor = 0.4
		start_equipment_factor = 0.01
	}
	division = {
		name = "148. Motorizirana Brigada"
		location = 630		#Timok
		division_template = "Motorizirana Brigada"
		start_experience_factor = 0.3
		start_equipment_factor = 0.01
	}
	division = {
		name = "544. Motorizirana Brigada"
		location = 3956		#Valjevo
		division_template = "Motorizirana Brigada"
		start_experience_factor = 0.3
		start_equipment_factor = 0.01
	}
	division = {
		name = "5. Motorizirana Brigada"
		location = 9809		#Podgorica
		division_template = "Motorizirana Brigada"
		start_experience_factor = 0.3
		start_equipment_factor = 0.01
	}
	division = {
		name = "37. Motorizirana Brigada"
		location = 937		#Uzice
		division_template = "Motorizirana Brigada"
		start_experience_factor = 0.3
		start_equipment_factor = 0.01
	}
	division = {
		name = "4. Motorizirana Brigada"
		location = 11887		#Niš
		division_template = "Motorizirana Brigada"
		start_experience_factor = 0.3
		start_equipment_factor = 0.01
	}
	division = {
		name = "9. Motorizirana Brigada"
		location = 11887		#Niš
		division_template = "Motorizirana Brigada"
		start_experience_factor = 0.3
		start_equipment_factor = 0.01
	}
	division = {
		name = "72. Specijalna Brigada"
		location = 11887		#Niš
		division_template = "Specijalna Brigada"
		start_experience_factor = 0.5
		start_equipment_factor = 0.01
	}
	division = {
		name = "63. Padobranska Brigada"
		location = 11887		#Niš
		division_template = "Padobranska Brigada"
		start_experience_factor = 0.5
		start_equipment_factor = 0.01
	}
}

instant_effect = {
	add_equipment_to_stockpile = {
		type = infantry_weapons
		amount = 15000
	}
	add_equipment_to_stockpile = {
		type = command_control_equipment
		amount = 1500
	}
	add_equipment_to_stockpile = {
		type = util_vehicle_0
		amount = 1500
	}
	add_equipment_to_stockpile = {
		type = Anti_tank_0
		amount = 950
		producer = SOV
	}
	add_equipment_to_stockpile = {
		type = Anti_tank_1
		amount = 950
		producer = SOV
	}
	add_equipment_to_stockpile = {
		type = Heavy_Anti_tank_1
		amount = 400
		producer = SOV
	}
	add_equipment_to_stockpile = {
		type = Anti_Air_0
		amount = 450
		producer = SOV
	}
	add_equipment_to_stockpile = {
		type = Anti_Air_1
		amount = 350
		producer = SOV
	}
	add_equipment_to_stockpile = {
		type = mbt_hull_0
		variant_name = "T-55"
		amount = 733
		producer = SOV
	}
	add_equipment_to_stockpile = {
		type = mbt_hull_0
		variant_name = "M-84"
		amount = 239
		producer = SER
	}
	add_equipment_to_stockpile = {
		type = mbt_hull_1
		variant_name = "T-72A"
		amount = 63
		producer = SOV
	}
	add_equipment_to_stockpile = {
		type = ifv_hull_0
		variant_name = "BVP M-80"
		amount = 532
	}
	add_equipment_to_stockpile = {
		type = apc_hull_0
		variant_name = "M-60/PB"
		amount = 1437
	}
	add_equipment_to_stockpile = {
		type = apc_hull_0
		variant_name = "BOV-1"
		amount = 342
	}
	add_equipment_to_stockpile = {
		type = apc_hull_0
		variant_name = "BOV-VP"
		amount = 58
	}
	add_equipment_to_stockpile = {
		type = apc_hull_0
		variant_name = "BTR-60"
		amount = 162
		producer = SOV
	}
	add_equipment_to_stockpile = {
		type = spart_hull_0
		variant_name = "2S1 Gvozdika"
		amount = 71
		producer = SOV
	}
	add_equipment_to_stockpile = {
		type = artillery_0 #D-30
		amount = 288
		producer = SOV
	}
	add_equipment_to_stockpile = {
		type = spart_hull_1
		variant_name = "Nora B-52"
		amount = 50
	}
	add_equipment_to_stockpile = {
		type = spart_hull_0
		variant_name = "M-63"
		amount = 97
		producer = CRO
	}
	add_equipment_to_stockpile = {
		type = spart_hull_1
		variant_name = "M-77"
		amount = 56
	}
	add_equipment_to_stockpile = {
		type = spaa_hull_0
		amount = 77
		producer = SOV
		variant_name = "SA-6 Gainful"
	}
	add_equipment_to_stockpile = {
		type = spaa_hull_0
		amount = 9
		producer = SOV
		variant_name = "SA-9 Gaskin"
	}

	#Helicopters
	add_equipment_to_stockpile = {
		type = transport_helicopter1
		amount = 45
		producer = FRA
	}
	add_equipment_to_stockpile = {
		type = transport_helicopter1 #Mil Mi-17
		amount = 53
		producer = SOV
	}
	add_equipment_to_stockpile = {
		type = attack_helicopter1
		amount = 41
		producer = FRA
		variant_name = "SA-342 Gazelle"
	}
}