﻿units = {

	### Naval OOB ###
	fleet = {
		name = "Syrian Navy"
		naval_base = 10087
		task_force = {
			name = "Syrian Navy"
			location = 10087
			ship = { name = "Al Hirasa" definition = corvette start_experience_factor = 0.10 equipment = { corvette_1 = { amount = 1 owner = SYR creator = SOV } } }
			ship = { name = "1-580" definition = corvette start_experience_factor = 0.10 equipment = { corvette_1 = { amount = 1 owner = SYR creator = SOV } } }
		}
	}
}
