﻿units = {

	### Naval OOB ###
	fleet = {
		name = "Syrian Navy"
		naval_base = 10087
		task_force = {
			name = "Syrian Navy"
			location = 10087
			ship = { name = "Al Hirasa" definition = corvette start_experience_factor = 0.10 equipment = { corvette_hull_1 = { amount = 1 owner = SYR creator = SOV version_name = "Petya Class" } } }
			ship = { name = "Al Assari" definition = corvette start_experience_factor = 0.10 equipment = { corvette_hull_1 = { amount = 1 owner = SYR creator = SOV version_name = "Petya Class" } } }
		}
	}
}
